<?xml version="1.0" encoding="utf-8"?>
<!-- Generator: Adobe Illustrator 26.0.1, SVG Export Plug-In . SVG Version: 6.00 Build 0)  -->
<svg version="1.1" id="Capa_1" xmlns="http://www.w3.org/2000/svg" xmlns:xlink="http://www.w3.org/1999/xlink" x="0px" y="0px"
	 viewBox="0 0 1536.4 1122.5" style="enable-background:new 0 0 1536.4 1122.5;" xml:space="preserve">
<style type="text/css">
	.st0{fill:#0780AA;}
	.st1{fill:#034554;}
	.st2{fill:#0A5D7A;}
	.st3{fill:#CC8E6E;}
	.st4{fill:#D8322E;}
	.st5{fill:#F75839;}
	.st6{fill:#D8A61A;}
	.st7{fill:#E51560;}
	.st8{fill:#CE6E6E;}
	.st9{fill:#BA5252;}
	.st10{fill:#B52626;}
	.st11{fill:#ED4029;}
	.st12{fill:#BA2F25;}
	.st13{fill:#F9793A;}
	.st14{fill:#E22962;}
	.st15{fill:none;stroke:#5E2C00;stroke-width:5;stroke-linecap:round;stroke-linejoin:round;}
	.st16{fill:none;stroke:#5E2C00;stroke-width:2;stroke-linecap:round;stroke-linejoin:round;}
	.st17{fill:none;stroke:url(#SVGID_1_);stroke-width:6;stroke-linecap:round;stroke-linejoin:round;}
	
		.st18{fill:none;stroke:url(#SVGID_00000012434761317517644000000010974516458528519838_);stroke-width:6;stroke-linecap:round;stroke-linejoin:round;}
	
		.st19{fill:none;stroke:url(#SVGID_00000140736840107978812040000006427896497754604934_);stroke-width:6;stroke-linecap:round;stroke-linejoin:round;}
	
		.st20{fill:none;stroke:url(#SVGID_00000168075724700506582860000015328729409781823137_);stroke-width:6;stroke-linecap:round;stroke-linejoin:round;}
	
		.st21{fill:none;stroke:url(#SVGID_00000149364197599190748330000011503821815958562729_);stroke-width:6;stroke-linecap:round;stroke-linejoin:round;}
	.st22{display:none;opacity:0.2;}
	.st23{display:inline;fill:#71A8FF;}
</style>
<g id="Capa_2_00000057116946459318185540000003324008227688342958_">
	<g id="fill_cat">
		<path class="st0" d="M361.2,184.6C387.9,177.9,447,267,447,267c-47.2-2.7-97.7,2.5-130.5,28.6
			C316.5,295.6,334.6,191.2,361.2,184.6z"/>
		<path class="st1" d="M1072.3,830.7l-101.2,288.9H835.4c0-64.2,82-94,82-94l23.9-131.3c-34.2-16.3-75.5-63.6-75.5-63.6
			c71.7-13.2,156.1-32.2,169.5-49.7C1046.4,798.4,1058.8,815,1072.3,830.7z"/>
		<path class="st1" d="M562.5,872l0.5,11.8h-0.1l-55.1,159.4c-22.6,10.5-43.5,30.2-46.5,67.3H310.4c0-95.5,98.4-91,98.4-91
			l54.1-217.2C489.7,825.9,522.5,849.7,562.5,872z"/>
		<path class="st2" d="M461.3,1110.5c2.9-37.1,23.9-56.8,46.5-67.3c29-13.5,60.6-11.7,60.6-11.7L563,883.8l-0.5-11.8
			c-40-22.3-72.8-46.1-99.6-69.5c-87.9-77-110.7-149.8-110.7-149.8s-94,11.9-114.8,7.5s-88-76.1-100-89.5s19.4-49.2,32.9-74.6
			s11.9-119.2,79-190.8c28.7-30.5,77.9-42.9,125-47c63.3-5.5,122.6,3.8,122.6,3.8S584.7,181.5,616,195s16.4,181.9,16.4,181.9
			s41.8,14.9,53.7,35.8c0,0,298.2-73.2,402.7-47.7s134.2,44.7,134.2,44.7c51.1,0,95.5-50.3,120-95.2c24.6-45.4,31.4-98.4,19-148.6
			c-5.7-22.7-21.7-42.6-47.3-42.7c-45.3-0.1-44.3,42.1-69.7,65.8c-17.3,16.2-46.6,15.8-65.7,1.8s-28.5-39.1-26.9-62.9
			s12.8-46,27.9-64.4c52.6-64.2,144.6-79.6,215.2-35.8c56.2,34.8,87.2,102.4,88.3,168.5s-24.3,130.6-60.7,185.9
			s-81.6,107.1-128.2,154.1c19.4,50.7-9,293.8-9,293.8l-25.3,289.3h-187.9c6-47.7,92.4-91,92.4-91l-19.4-138.7
			c-27-10.6-53.2-35.8-73.3-59.2c-13.5-15.7-25.9-32.3-37.1-49.6c-13.4,17.5-97.8,36.5-169.5,49.7c-56.4,10.6-105,17.4-105,17.4
			l-113.2,271.4H461C461,1116.4,461.1,1113.5,461.3,1110.5z"/>
	</g>
	<g id="intestino">
		<path class="st3" d="M1196.8,628.5c-11.4,6.3-28.4,11-41.4,11.3c16.2-18.3,36.7-32.4,59.5-41.1l0.4,1c1.2,6-0.8,12.3-4.4,17.2
			S1202.2,625.6,1196.8,628.5z"/>
		<path class="st3" d="M1122.1,643.4c0.1-2.2,0-4.4-0.4-6.5l0.8-0.1c5.4-1.3,10.1-4.7,13.9-8.8c2.5-2.8,4.7-5.8,6.6-8.9l0,0
			c6-7.7,14.8-12.5,23-17.8c1.7-1.1,3.5-2.3,5.2-3.5c6.3-4.6,11.9-10.2,14.5-17.4c1.8-4.8,2-10,3.7-14.8c1-3,2.6-5.7,4.7-8.1
			c3-3.5,6.8-6.3,11.1-8.1c4.8-2,10-2.7,15.1-1.8c2.5,0.5,4.9,1.3,7.1,2.5c9.2,4.8,15.7,14.8,15.4,25.3l0.3,2.2
			c-16.5,2.5-32.6,7.6-47.6,15l0,0c-0.6,0.3-1.3,0.6-1.9,1l-0.1,0.1c-22.6,11.4-42.3,27.9-57.4,48.2L1122.1,643.4z"/>
		<path class="st3" d="M1185.7,580.2c-2.7,7.2-8.3,12.8-14.5,17.4c3.6-3,6.1-9.7,5.8-14.4s-2.2-9.2-3.9-13.5c-0.2-0.5-0.4-1-0.6-1.5
			l0.6-0.3c4.7-6.8,12.5-10.9,20.8-10.9l0.4,0.3c-2,2.4-3.6,5.1-4.7,8.1C1187.8,570.3,1187.5,575.5,1185.7,580.2z"/>
		<path class="st3" d="M1160.3,514.6l1.8-0.3c6.8-1,13.6-2,20.4-1.5s13.7,2.8,18.6,7.6c7.3,7.4,8.7,18.7,3.6,27.7l0.5,1.2
			c-4.3,1.8-8.1,4.6-11.1,8.1l-0.4-0.3c-8.3,0-16,4.1-20.8,10.9l-0.6,0.3c-1.6-3.9-3.1-7.9-3.4-12c-0.4-5.5,1.1-11,1.5-16.5
			c0.7-8.7-2-18.1-8.6-23.8C1161.5,515.4,1160.9,515,1160.3,514.6z"/>
		<path class="st3" d="M1090.3,557.6c4.2-2.1,8.4-4.2,12.6-6.2c4.7-2.3,9.4-4.7,12.8-8.7c2.5-3.1,4-6.9,4.4-10.8l1,0.1
			c4.1,0,7.6-3.2,9.9-6.6s4-7.3,7.1-10.2c5.9-5.5,15.6-5.2,22.3-0.6c0.6,0.4,1.1,0.8,1.6,1.3c6.6,5.7,9.2,15.1,8.6,23.8
			c-0.4,5.5-2,11-1.5,16.5c0.3,4.2,1.8,8.1,3.4,12c0.2,0.5,0.4,1,0.6,1.5c1.8,4.4,3.6,8.8,3.9,13.5s-2.2,11.4-5.8,14.4
			c-1.7,1.2-3.4,2.4-5.2,3.5c-8.2,5.3-17,10.2-23,17.8l0,0c1-1.6,2-3.2,2.9-4.7c4.9-8.2,10-16.7,11.4-26.2s-1.7-20.3-10-25.2
			c-5.1-3-11.5-3.4-17.4-2.2c-4.2,0.8-8.5,2.5-11.4,5.7c-1.7,1.9-2.9,4.3-3.5,6.8l-0.4-0.1c-5-8.7-14.1-14.2-24.1-14.7L1090.3,557.6
			z"/>
		<path class="st3" d="M1180.5,650.2c-5.6,18.3-19.8,32.7-38,38.6l-1.6-0.4c2.3-10,2.6-20.3,0.9-30.3c4.1-6.4,8.6-12.5,13.7-18.2
			l0,0c13.1-0.4,30-5,41.4-11.3c5.3-3,10.4-6.6,14-11.5s5.6-11.2,4.4-17.2l-0.4-1c8.3-3.2,16.8-5.6,25.5-7.2l0.3,1.6
			c5.1,18.1-5.5,37-23.6,42c-5.1,1.4-10.6,1.7-15.8,0.6c-3.8-0.7-7.7-2.1-11.4-0.9c-3,1-5.1,3.6-6.5,6.4
			C1182.1,644.2,1181.2,647.2,1180.5,650.2z"/>
		<path class="st3" d="M1110.5,508.2c1.3,0.3,2.6,0.5,3.9,0.5c4.3-0.2,8.2-2.5,10.4-6.2c5.8,4.6,15.5,2.9,19.3-3.5
			c2.4,6.1,11.5,8.1,16.2,3.6c3.4,3.9,9.3,4.4,13.3,1.2c6.1,5.8,15.6,6.4,22.4,1.4c3.4,8,14.5,11.4,21.8,6.8
			c1.4,4.5,5.9,7.3,10.6,6.6c0.2,3,1.6,5.9,3.7,8l-0.7,0.6c1.2,7.6,0.2,15.4-2.9,22.5l-1.2,0.4c-2.2-1.2-4.6-2-7.1-2.5
			c-5.1-0.9-10.3-0.3-15.1,1.8l-0.5-1.2c5.2-9,3.7-20.3-3.6-27.7c-4.9-4.8-11.8-7-18.6-7.6s-13.7,0.5-20.4,1.5l-1.8,0.3
			c-6.7-4.6-16.4-4.9-22.3,0.6c-3,2.8-4.8,6.7-7.1,10.2s-5.8,6.6-9.9,6.6l-1-0.1c0.3-2.4,0.2-4.8-0.3-7.2
			C1118.4,518.4,1115.2,512.6,1110.5,508.2L1110.5,508.2z"/>
		<path class="st4" d="M993.8,535.2c-10.1-8.6-13.3-24.6-6.6-36.1c5-8.6,14.3-13.8,24-16.1s19.7-1.8,29.6-1.4l15,0.7
			c1.2,0,2.4,0.1,3.5,0.3c0.7,0.1,1.4,0.3,2,0.6c2.2,1.1,4,3,5.2,5.2c4.1,6.9,5.3,15.2,3.3,22.9c-0.3,1.2-0.8,2.4-1.3,3.6
			c-3.1,6.3-9.6,12.1-15.3,15.5l-1.7,0.4c-2.3-1.9-5-3.4-7.8-4.3c-2.9-0.9-9.6-1.3-13.6,0.4c-3,1.2-4.4,3.6-1.6,7.6
			c1.1,1.5,2.6,2.7,4.3,3.5c-7.2,4.2-16.8,5.5-25.5,3.7C1002.5,540.6,997.7,538.4,993.8,535.2z"/>
		<path class="st3" d="M1051.5,530.8l1.7-0.4c5.8-3.4,12.2-9.2,15.3-15.5l1.5,0.3c6.3,4.3,16.5,0.6,18.5-6.9c3,3.6,8.3,4.2,11.9,1.2
			c1.9-1.5,3-3.8,3.1-6.2c1.7,2.3,4.2,4,7,4.8v0.1c4.7,4.4,7.9,10.1,9.3,16.4c0.5,2.4,0.6,4.8,0.3,7.2c-0.4,4-1.9,7.7-4.4,10.8
			c-3.3,4-8.1,6.4-12.8,8.7c-4.2,2.1-8.4,4.1-12.6,6.2l-17.6,8.7l-0.9,0.3c-1.2-3.4-2.4-6.9-3.6-10.3c-2.9-8-6.5-16.1-12.7-21.9
			C1054.2,533.1,1052.9,531.9,1051.5,530.8z"/>
		<path class="st5" d="M1054.4,481.3c9.6-7.5,24.9-10.7,35.9-5.4c9.1-10.2,26.1-12.2,37.2-4.3c11.9-8.3,29.5-7.1,40.2,2.6
			c8-4,17.7-2.6,24.2,3.6c7.2-3.1,16.6,2.1,17.8,9.8c6-2.7,13.1-0.1,15.9,6c0.8,1.7,1.1,3.5,1.1,5.3c7.6-2.7,16,1.3,18.7,8.9
			c0.6,1.7,0.9,3.6,0.8,5.4c2.2-2.3,6.2-1.8,8.7,0.2c2.5,2,3.9,5,5.1,8c4.3,9.9,5.4,21.3,13.8,28.1c3.3,2.7,7,7,4.8,10.7
			c-1.3,2.1-4.1,2.8-6.5,2.4c-2.4-0.6-4.6-1.7-6.5-3.2l-18.7-12.7c-2.8-1.9-5.6-3.8-7.5-6.6s-2.5-6.7-0.6-9.5
			c-2.8-0.4-5.4-1.7-7.4-3.7c-2.2-2.2-3.6-5.1-3.8-8.2c-4.8,0.8-9.4-2.1-10.8-6.7c-7.5,4.7-18.9,1.2-22.4-7c-7,5.2-16.7,4.6-23-1.4
			c-4.1,3.3-10.2,2.8-13.7-1.2c-4.8,4.6-14.2,2.6-16.6-3.6c-3.9,6.5-13.8,8.4-19.8,3.6c-2.3,3.7-6.3,6.1-10.7,6.3
			c-1.3,0.1-2.7-0.1-4-0.5c-2.9-0.8-5.4-2.5-7.2-4.9c-0.2,4.8-4.3,8.5-9.1,8.3c-2.5-0.1-4.8-1.3-6.4-3.2c-2.1,7.6-12.4,11.4-18.9,7
			l-1.6-0.3c0.6-1.2,1-2.4,1.4-3.7c2-8,0.8-16.4-3.4-23.5c-1.2-2.3-3.1-4.1-5.3-5.3c-0.6-0.3-1.3-0.5-2-0.6L1054.4,481.3z"/>
		<path class="st3" d="M1071.8,566.6l0.9-0.3l17.6-8.7l0.3,0.6c10,0.5,19.1,6,24.1,14.7l0.4,0.1c0.6-2.5,1.8-4.8,3.5-6.8
			c2.9-3.2,7.2-4.9,11.4-5.7c5.9-1.1,12.2-0.8,17.4,2.2c8.3,4.9,11.4,15.7,10,25.2s-6.5,18-11.4,26.2c-1,1.6-1.9,3.2-2.9,4.7
			c-1.9,3.2-4.2,6.2-6.6,8.9c-3.8,4.1-8.4,7.5-13.9,8.8l-0.8,0.1c-1.8-10.7-8.9-20.3-16.8-28.1c-9.4-9.3-20.4-17.5-27.2-28.9
			C1075.4,575.6,1073.4,571.2,1071.8,566.6z"/>
		<path class="st3" d="M1069.6,587.9c-7-1.8-12.7-6.2-18.2-11.1l-0.1-0.5c3.5-0.9,6.9-2.3,10-4.1l0.3-0.1c0.9,2.3,1.9,4.5,3,6.7
			c1.6,3.1,3.4,6,5.4,8.8L1069.6,587.9z"/>
		<path class="st3" d="M1057.7,612.5c-11.1-4.7-23.1-11.8-30.2-21.7c-4.2-5.9-7.5-12-6.9-19.4c0.6-6.5,3.8-13.8,10.3-16.2l17.5-6.4
			l1.2-1c2.4,2.9,4.5,6.2,6.1,9.6c2.2,4.7,3.9,9.7,5.9,14.5l-0.3,0.1c-3.1,1.9-6.5,3.2-10,4.1l0.1,0.5c5.4,4.8,11.1,9.2,18.2,11.1
			l0.5-0.3c7.7,10.8,18,19.9,26.3,30.1l-0.5,0.4C1082.9,619.5,1069.8,617.6,1057.7,612.5z"/>
		<path class="st6" d="M1028.5,534.4c-2.8-4-1.4-6.4,1.6-7.6c4-1.7,10.7-1.3,13.6-0.4c2.8,1,5.5,2.5,7.8,4.3c1.4,1.1,2.8,2.3,4,3.5
			c6.2,5.8,9.8,13.9,12.7,21.9c1.2,3.4,2.4,6.9,3.6,10.3c1.6,4.6,3.6,9.1,6,13.3c6.8,11.4,17.7,19.6,27.2,28.9
			c7.8,7.8,15,17.4,16.8,28.1c0.4,2.1,0.5,4.3,0.4,6.5l14.1-1.7c15.1-20.3,34.7-36.9,57.4-48.2l0.1-0.1c0.6-0.3,1.3-0.6,1.9-1l0,0
			c15-7.4,31-12.5,47.6-15c6.8-1,13.8-1.6,20.7-1.8c4.9-0.1,11.3,1.4,11.6,6.3c0.2,2.8-2,5.2-4.6,6.2s-5.4,1-8.2,1.1
			c-7.5,0.1-15,0.9-22.4,2.3c-8.7,1.6-17.2,4-25.5,7.2c-22.8,8.7-43.2,22.8-59.5,41.1l0,0c-5,5.7-9.6,11.8-13.7,18.2
			c3.2,19.2-0.8,39-11.4,55.4c-3.9,6-8.6,11.4-14.6,15.3s-13.2,5.9-20.2,4.9c-6.6-1.2-12.5-4.5-17-9.5c-7.9-8.4-11.5-20.3-10.9-31.9
			c0-0.3,0-0.6,0-0.8c0.9-11.8,6-23,13.4-32.3c0.5-0.6,0.9-1.2,1.4-1.7c7.1-8.6,15.6-15.8,25.1-21.4c-2.7-6.7-6.5-12.9-11.2-18.4
			c-8.3-10.3-18.6-19.4-26.3-30.1c-2-2.8-3.8-5.7-5.4-8.8c-1.1-2.2-2.1-4.4-3-6.7c-2-4.8-3.7-9.8-5.9-14.5c-1.6-3.5-3.6-6.7-6.1-9.6
			c-2.4-3-5.5-5.4-9-7c-2.1-1-4.4-1.6-6.6-2.5c-0.4-0.2-0.8-0.4-1.3-0.6C1031.1,537.1,1029.7,535.9,1028.5,534.4z"/>
		<path class="st3" d="M1002,550.6c0.9-3.2,2.7-6.1,5.2-8.3l0.2-0.8c8.6,1.8,18.2,0.6,25.5-3.7c0.4,0.2,0.8,0.4,1.3,0.6
			c2.2,0.9,4.4,1.5,6.6,2.5c3.5,1.6,6.6,4,9,7l-1.2,1l-17.5,6.3c-6.6,2.4-9.8,9.7-10.3,16.2c-0.6,7.3,2.7,13.5,6.9,19.4
			c7.1,9.9,19.1,17,30.2,21.7c12,5.1,25.2,7,38.1,5.5l0.5-0.4c4.7,5.5,8.4,11.7,11.2,18.4c-9.6,5.6-18.1,12.9-25.1,21.4l-1-0.8
			c-16,2.3-32.2-3-43.9-14.2c-3.9-3.8-7.4-8.4-12.6-10.2l-1.8,0.4l-12.3-59.5c-1.3-6.2-2.6-12.7-6-18.1c-0.9-1.5-2-2.9-3.3-4.1
			L1002,550.6z"/>
		<path class="st3" d="M1025,632.3c5.1,1.8,8.7,6.4,12.6,10.2c11.7,11.2,27.8,16.4,43.9,14.2l1,0.8c-0.5,0.6-1,1.2-1.4,1.7
			c-7.4,9.2-12.5,20.5-13.4,32.3c0,0.3,0,0.6,0,0.8l-1.3-0.1c-11.6-0.9-22.8-4.5-32.8-10.5l-1.1,0.1c-0.9-8.3-2.3-16.6-4.1-24.7
			c-1.7-8.2-3.3-16.3-5-24.5L1025,632.3z"/>
		<path class="st7" d="M1017.3,725.9c-7.7,2.1-15.8-3.7-19-10.9s-3-15.6-2.5-23.6l0,0c1.8-6.6,3.2-13.2,4.3-19.9
			c2.1-13.3,2.6-28.6,0.3-48.9c-2.5-22.2-6.2-52.8-12.9-76.5l2-0.6c4.7-0.1,9,2.2,12.3,5.5c1.2,1.3,2.3,2.6,3.3,4.1
			c3.4,5.4,4.7,11.8,6,18.1l12.3,59.5c1.7,8.1,3.4,16.3,5,24.5c1.8,8.2,3.2,16.4,4.1,24.7c0.9,10,0.6,19.9-2.5,29.4
			C1027.8,717.6,1023.8,724.1,1017.3,725.9z"/>
		<path class="st8" d="M957.2,675.3c-5.5,4.2-5.1,21.9,3.4,19.5c5-1.4,12.4-7.6,10.1-13.5c-1.7-4.4-6.5-5.6-12.7-7.4L957.2,675.3z
			 M809.9,631.8c0.2-1.1,0.5-2.3,0.7-3.3c1-4.3,2.6-12.2,4.2-21.5l1.2,0.2c0,0,2.7-0.3,7.2-1s10.7-1.5,17.8-2.6
			c21.7-3.3,50.7-8.3,58.4-12.5l0.5-0.3c11.2-6.9,8.4-18.7,9.9-32.5s4.6-22.1,13.2-31.4c3.4-3.4,7.3-6.4,11.5-8.8
			c10.6,3.7,18.3,10.5,24.3,20c6.1,9.6,8.7,21,7.6,32.3c-0.9,8.5-4,16.7-5.4,25.2s-1,17.9,4.3,24.7c4.6,5.9,12,8.7,18.1,13.1
			c11.9,8.8,18.2,23.2,16.5,37.9h0.2c-1.1,6.7-2.5,13.4-4.3,19.9c-0.2,0.6-0.3,1.2-0.5,1.7c-5.3,19.2-35.9,20.3-35.9,20.3
			s-17.8,16.3-32,21.7s-19.7,1.8-19-10.7s42-16.8,42-16.8s-15.7-5.2-17.8-18.5c-1.2-8,1.2-16.1,6.6-22.1l1.3-1.7
			c-8.4-8.3-14.8-23.6-19.2-31.7c-5.3-9.7-9.4-14.8-19.4-16c-0.7-0.1-1.5-0.1-2.2,0c-9.3,0.3-36.8,4.8-59,8.6
			c-7.3,1.3-14,2.5-19.3,3.4C814.5,630.9,810.1,631.7,809.9,631.8z"/>
		<path class="st9" d="M934.3,518.2c13-7.7,31.9-13.2,42.1,2c4.3,6.4,7.9,15.4,10.9,25.8c6.8,23.7,10.4,54.2,12.9,76.5
			c2.3,20.3,1.8,35.6-0.3,48.9h-0.2c1.6-14.7-4.6-29.1-16.5-37.9c-6.1-4.4-13.5-7.2-18.1-13.1c-5.3-6.8-5.8-16.2-4.3-24.7
			s4.5-16.7,5.4-25.2c1.2-11.3-1.5-22.7-7.6-32.3C952.7,528.7,945,521.9,934.3,518.2z"/>
		<path class="st4" d="M899.6,618.8c1.3,11.3,4.5,22.2,9.6,32.4c3.9,7.7,8.9,15.2,10.1,23.8c1.2,8.2-1.1,16.6-5.1,23.8
			s-9.4,13.6-14.8,19.8c-4.9,5.6-10,11.3-16.4,15.2c-5.6,3.4-12.5,5.3-18.9,4.1l0.2-1.1c7.8-2.9,12.8-11.1,13.6-19.5
			s-2.2-16.6-6.2-23.9s-9.3-13.8-13.9-20.8c-8.8-13.4-14.6-28.5-16.9-44.4l-0.3-1.8c22.2-3.8,49.7-8.3,59-8.6L899.6,618.8z"/>
		<path class="st10" d="M823.2,606.2c0.9-6.4,2.2-12.7,3.9-19c3.2-12,7.7-23.8,15.3-33.7c10.7-13.9,26.4-22.7,41.7-31.2
			c3.6-2,7.7-4,11.5-2.6c4.1,1.5,5.5,6,5.9,10.6l-1,0.1c-5.7,10.3-17.9,14.7-27.8,21.2c-17.5,11.5-28.7,31.2-31.8,52
			C833.9,604.7,827.7,605.6,823.2,606.2z"/>
		<path class="st10" d="M840.9,628.1c2.3,15.8,8.1,31,16.9,44.4c4.5,7,9.8,13.5,13.9,20.8s7,15.6,6.2,23.9s-5.7,16.6-13.6,19.5
			l-0.2,1.1c-0.9-0.2-1.7-0.4-2.6-0.7c-8.1-2.7-13.5-10.4-17.7-17.9c-15.2-27.4-23-58.2-22.6-89.5c5.3-1,12-2.2,19.3-3.4
			L840.9,628.1z"/>
		<path class="st4" d="M899.3,591.2c-7.6,4.2-36.7,9.2-58.4,12.5c3-20.8,14.2-40.5,31.8-52c9.9-6.5,22-10.8,27.8-21.2l1-0.1
			c0.1,1.7,0.1,3.3,0,5c-0.5,9.5-1,19-1.5,28.5c-0.4,8.7-1,17.2-1.3,25.8L899.3,591.2z"/>
		<path class="st11" d="M610.3,633.4c5-5.8,10.4-11.3,15.8-16.8c4.5-4.6,9-9.1,13.5-13.7c9.8-10,19.8-20,30.6-28.9
			c6.7-5.5,13.9-10.5,21.4-14.9c11.8-6.7,25.8-10.7,38.7-14.5c17.7-5.3,35.9-8.2,54.4-8.7h0.9c10.2-0.1,25.9,0.4,30.9,11.2
			c4.9,10.7,1.8,38.8-1.7,59.7c-1.6,9.2-3.2,17.1-4.2,21.5c-0.3,1.1-0.5,2.2-0.7,3.3l0,0c-1.9,9.8-2.3,21.4-2.6,34.6
			c-0.1,5.2-0.2,10.5-0.3,16.2c-0.5,21.8-22.8,24.8-33.6,25.9c-5.6,0.6-11.2,0.9-16.8,0.8c-4.5-0.1-10.3-0.2-19-0.5
			c-4.4-0.1-11,0.2-18.8,0.8c-30.4,2.2-79.8,8.1-93.6,7.6c-17.3-0.7-26.4-2.1-38.4-9.3s-17.5-8.5-13.8-22.7
			c2.6-9.8,9.4-17.8,17.3-27.1l0,0c3.6-4.2,7.4-8.7,11.2-13.8C604.3,640.6,607.2,637,610.3,633.4z"/>
		<path class="st12" d="M784.7,536c-18.4,0.4-36.7,3.3-54.4,8.6c-12.9,3.8-27,7.7-38.7,14.5c-7.5,4.4-14.7,9.4-21.4,14.9
			c-10.9,8.9-20.8,18.9-30.6,28.9c-4.4,4.5-9,9.1-13.5,13.7l-0.1-0.1c-6.3-2.2-12.6-4.5-18.9-7c0,0,60.1-60.6,84.1-73.8
			s63.1-25,74.7-24s15.9,10.5,18.8,23.1L784.7,536z"/>
		<path class="st12" d="M756.6,709.2c5.6,0.1,11.2-0.1,16.8-0.8c10.8-1.1,33.1-4.2,33.6-25.9c0.1-5.6,0.2-11,0.3-16.2
			c8.5,12.9,17.1,30.9,18,46.3c0.4,7.3-0.7,14.6-3.3,21.4c-5,7-11.8,11.4-20.4,11.9c-8.8,0.5-17.3-3-23.3-9.5
			c-3.9-4.3-6.5-9.6-9.5-14.6s-6.8-9.8-12.1-12.1V709.2z"/>
		<path class="st4" d="M718.8,709.5c7.8-0.6,14.4-0.9,18.8-0.8c8.8,0.2,14.5,0.4,19,0.5v0.6c5.3,2.3,9.1,7.1,12.1,12.1
			s5.6,10.3,9.5,14.6c6,6.4,14.5,9.9,23.3,9.5c8.6-0.5,15.4-4.8,20.4-11.9c-6.1,17.2-23.7,27.4-41.6,24.1
			c-9.2-1.5-17.7-5.6-24.7-11.8c-13.1-11.3-21.3-28.4-36.8-36.2L718.8,709.5z"/>
		<path class="st5" d="M404.1,536.5c15.5-0.1,30.9,1,45.9,4.6c30.3,7.3,57,24.7,80.7,44.5c6,5,11.9,10.2,17.6,15.5
			c4.9,4.5,8.5,9.8,14.1,13.5c13.5,8.7,28.5,14.9,44.2,18.2c0.4,0.1,3.5,1,3.8,0.7c-3.1,3.5-6.1,7.2-8.9,10.9
			c-3.8,5-7.6,9.5-11.2,13.8c-3.3,0.5-10.5-4.2-13.5-5.5c-5.8-2.6-11.5-5.4-17.1-8.5c-13.6-7.5-28.4-16.8-39.1-28.2
			c-4.7-5-8-9.5-13.6-13.8c-6-4.5-12.4-8.6-18.9-12.2c-13.1-7.4-27.1-13.1-41.6-17.1c-23.8-6.6-48.8-8.3-73.3-5l-3.7-30
			C380.8,537.2,392.5,536.5,404.1,536.5z"/>
		<path class="st13" d="M399.6,511.4c3.5,0.1,6.9,0.3,10.4,0.5c42.6,2.9,85.4,14.8,119.8,40c13,9.5,24.6,20.7,36.2,31.9
			c5.6,5.4,11.3,13,18.4,16.2c7.3,3.3,15.1,6.4,22.6,9.4c6.3,2.5,12.7,4.8,18.9,7l0.1,0.1c-5.4,5.5-10.7,11.1-15.8,16.8
			c-29.7-5.2-55.1-20.8-75.6-42.5s-46.9-38-75.2-47.4c-11.4-3.8-23.1-6.5-34.9-8c-12.9-1.7-26-1.9-39-2.2l-59-1.3
			c-15.3-0.3-31.6-1-43.9-10C321.3,515.2,360.5,509.9,399.6,511.4z"/>
		<path class="st14" d="M195.4,592.2c-10.1,0.1-22.1-20.1-18.9-31.9s13.2-8.3,25.4-19.1c6.6-5.9,12.1-13,17.2-20.2
			c5-7,12.1-14.3,19.5-18.9c5.6-3.5,12.6-5.4,18.9-3.5c5.3,1.5,9.6,5.5,13.2,9.7c3.6,4.2,6.8,8.8,11,12.4c7.4,6.3,17.3,9,27,9.5
			s19.4-0.9,29.1-1.8c6.1-0.5,12.3-0.9,18.1,1.2c9.6,3.4,14.7,13.2,16,22.6c1.8,12.7,2.1,25.6,1,38.4c-0.6,6.5-1.7,13.1-6.6,17.7
			c-11.8,11-30.7,6.5-45.2,5c-12-1.3-22,0.1-33.7,2.2c-9.2,1.6-18.9,1.5-28,3.4c-5.8,1.2-10.6,2.8-16.8,1.8
			c-8.4-1.4-34.9-1.8-34.9-14.6c-2.6-6.9,54.7-34.5,51.1-38.5S205.5,592.1,195.4,592.2z"/>
		<path class="st15" d="M368.8,604.7c7.4-14.1,4.3-30.4,3.8-45.5c-0.4-12.6-2.7-24-15.4-29.5c-6.3-2.8-13.5-2.7-20.4-2.1
			c-9.3,0.8-18.5,2.6-27.8,2.6c-4,0-8-0.4-11.9-1.2c-5.2-1-10.1-3.2-14.4-6.4c-5.1-4-8.7-9.4-12.8-14.4c-3.5-4.2-7.7-8.1-12.9-10
			c-6-2.3-11-0.9-16.5,2.3c-17,9.9-24.3,28.1-38.6,40.9c-12.1,10.8-22.2,7.3-25.4,19.1s8.8,32,18.9,31.9s59.9-28.6,63.4-24.6
			s-53.7,31.6-51.1,38.5c4.6,12.3,23.2,14.6,34.3,15c7.9,0.3,15.2-1.7,23-2.1c10.1-0.5,20.3-1.2,30.1-4.1c7.2-2.1,14.8-2.9,22.3-2.2
			c7,0.6,13.7,4.2,20.5,4.2C348.1,617,363.6,614.6,368.8,604.7z"/>
		<path class="st15" d="M374.6,566.6c43.1,0.8,78.2,2.3,116.4,24.8c17.8,10.5,30.1,25.3,45.7,38s35,21.7,53.6,28.6"/>
		<path class="st15" d="M610.4,633.4L610.4,633.4c-19.6-3.4-39.5-10.6-55-23.2c-13.7-11.1-25.3-25.3-39.1-35.7
			c-24.2-18.2-51.6-32-81.6-36.3c-24.1-3.4-44.8-3-69.1-2.5"/>
		<path class="st15" d="M607.1,609.4c6.3,2.5,12.7,4.8,18.9,7"/>
		<path class="st15" d="M283.9,521.5c36.5-10.8,78.4-11.5,115.4-10.2c21.9,0.7,43.6,3.9,64.9,9.3c27.2,7,52.8,19.8,74.1,38.2
			c10.2,8.8,18,20.2,28.1,28.8c11.8,10,26.5,16.2,40.7,21.8"/>
		<path class="st15" d="M607.1,609.4c0,0,60.1-60.6,84.1-73.8s63.1-25,74.7-24s15.9,10.5,18.8,23.1"/>
		<path class="st15" d="M809.9,631.8c0.2-1.1,0.5-2.3,0.7-3.3c1-4.3,2.6-12.2,4.2-21.5c3.5-20.9,6.6-49,1.7-59.7
			c-5-10.9-20.7-11.3-30.9-11.2h-0.9c-18.4,0.4-36.7,3.3-54.4,8.6c-12.9,3.8-27,7.7-38.7,14.5c-7.5,4.4-14.7,9.3-21.4,14.9
			c-10.9,8.9-20.8,18.9-30.6,28.9c-4.4,4.5-9,9.1-13.5,13.7c-5.4,5.5-10.7,11.1-15.8,16.8c-3.1,3.5-6.1,7.2-8.9,10.9
			c-3.8,5-7.6,9.5-11.2,13.8l0,0c-7.9,9.3-14.7,17.3-17.3,27.1c-3.7,14.2,1.8,15.5,13.8,22.7s21.1,8.6,38.4,9.3
			c13.8,0.5,63.2-5.4,93.6-7.6c7.8-0.6,14.4-0.9,18.8-0.8c8.8,0.2,14.5,0.4,19,0.5c5.6,0.1,11.2-0.1,16.8-0.8
			c10.8-1.1,33.1-4.2,33.6-25.9c0.1-5.6,0.2-11,0.3-16.2C807.5,653.2,808,641.6,809.9,631.8"/>
		<path class="st15" d="M718.8,710.2c15.5,7.8,23.6,24.9,36.8,36.2c7,6.1,15.6,10.2,24.7,11.8c17.9,3.3,35.6-6.9,41.6-24.1
			c2.6-6.8,3.8-14.1,3.4-21.4c-0.9-15.4-9.6-33.3-18-46.3"/>
		<path class="st16" d="M756.6,709.8c5.3,2.3,9.1,7.1,12.1,12.1s5.6,10.3,9.5,14.6c6,6.4,14.5,9.9,23.3,9.5
			c8.6-0.5,15.4-4.8,20.4-11.9"/>
		<path class="st15" d="M809.8,631.8L809.8,631.8c0.2,0,4.7-0.9,11.5-2.1c5.3-1,12-2.2,19.3-3.4c22.2-3.8,49.7-8.3,59-8.6
			c0.7,0,1.5,0,2.2,0c10,1.2,14.1,6.2,19.4,16c4.4,8,10.8,23.3,19.2,31.7c1.6,1.6,3.5,3,5.5,4.1c3.8,1.9,7.9,3.4,12,4.5
			c6.2,1.8,11,3,12.7,7.4c2.3,5.9-5.1,12.1-10.1,13.5c-8.5,2.4-8.9-15.3-3.4-19.5"/>
		<path class="st15" d="M939.1,667.1c-5.3,6-7.8,14.1-6.6,22.1c2.1,13.3,17.8,18.5,17.8,18.5s-41.3,4.3-42,16.8s4.8,16,19,10.7
			s32-21.7,32-21.7s30.6-1.1,35.9-20.3c0.2-0.6,0.3-1.2,0.5-1.7c1.8-6.6,3.2-13.2,4.3-19.9c2.1-13.3,2.6-28.6,0.3-48.9
			c-2.5-22.2-6.2-52.8-12.9-76.5c-3-10.4-6.5-19.4-10.9-25.8c-10.2-15.2-29.2-9.7-42.1-2c-4.2,2.4-8,5.4-11.5,8.8
			c-8.6,9.3-11.7,17.6-13.2,31.4s1.3,25.6-9.9,32.5l-0.5,0.3c-7.6,4.2-36.7,9.2-58.4,12.5c-7,1.1-13.3,2-17.8,2.6s-7.2,1-7.2,1"/>
		<path class="st15" d="M934.3,518.2c10.6,3.7,18.3,10.5,24.3,20c6.1,9.6,8.7,21,7.6,32.3c-0.9,8.5-4,16.7-5.4,25.2
			s-1,17.9,4.3,24.7c4.6,5.9,12,8.7,18.1,13.1c11.9,8.8,18.2,23.2,16.5,37.9"/>
		<path class="st15" d="M821.3,629.7c-0.4,31.3,7.3,62.2,22.6,89.5c4.2,7.5,9.5,15.1,17.7,17.9c0.8,0.3,1.7,0.5,2.6,0.7
			c6.4,1.2,13.2-0.7,18.9-4.1c6.4-3.9,11.5-9.5,16.4-15.2c5.5-6.2,10.9-12.5,14.8-19.8s6.3-15.7,5.1-23.8c-1.3-8.6-6.2-16-10.1-23.8
			c-5.1-10.2-8.3-21.1-9.6-32.4"/>
		<path class="st15" d="M898.7,589.6c0.3-8.5,0.9-17.1,1.3-25.8c0.5-9.5,1-19,1.5-28.5c0.1-1.7,0.1-3.3,0-5
			c-0.3-4.6-1.8-9.1-5.9-10.6c-3.8-1.4-8,0.6-11.5,2.6c-15.3,8.5-31,17.3-41.7,31.2c-7.5,9.8-12.1,21.7-15.3,33.7
			c-1.7,6.3-3,12.6-3.9,19"/>
		<path class="st16" d="M841,603.6c3-20.8,14.2-40.5,31.8-52c9.9-6.5,22-10.8,27.8-21.2"/>
		<path class="st16" d="M864.3,736.6c7.8-2.9,12.8-11.1,13.6-19.5s-2.2-16.6-6.2-23.9s-9.3-13.8-13.9-20.8
			c-8.8-13.4-14.6-28.5-16.9-44.4"/>
		<path class="st15" d="M995.8,691.4c-0.4,8-0.7,16.3,2.5,23.6s11.4,13,19,10.9c6.5-1.8,10.4-8.2,12.5-14.6
			c3.1-9.5,3.5-19.4,2.5-29.4c-0.9-8.3-2.3-16.6-4.1-24.7c-1.7-8.2-3.3-16.3-5-24.5l-12.3-59.5c-1.3-6.2-2.6-12.7-6-18.1
			c-0.9-1.5-2-2.9-3.3-4.1c-3.3-3.3-7.7-5.6-12.3-5.5"/>
		<path class="st15" d="M1155.4,639.8c-5,5.7-9.6,11.8-13.7,18.2c3.2,19.2-0.8,39-11.4,55.4c-3.9,6-8.6,11.4-14.6,15.3
			s-13.2,5.9-20.2,4.9c-6.6-1.2-12.5-4.5-17-9.5c-7.9-8.4-11.5-20.3-10.9-31.9c0-0.3,0-0.6,0-0.8c0.9-11.8,6-23,13.4-32.3
			c0.5-0.6,0.9-1.2,1.4-1.7c7.1-8.6,15.6-15.8,25.1-21.4c-2.7-6.7-6.5-12.9-11.2-18.4c-8.3-10.3-18.6-19.4-26.3-30.1
			c-2-2.8-3.8-5.7-5.4-8.8c-1.1-2.2-2.1-4.4-3-6.7c-2-4.8-3.7-9.8-5.9-14.5c-1.6-3.5-3.6-6.7-6.1-9.6c-2.4-3-5.5-5.4-9-7
			c-2.1-1-4.4-1.6-6.6-2.5c-0.4-0.2-0.8-0.4-1.3-0.6c-1.7-0.8-3.2-2-4.3-3.5c-2.8-4-1.4-6.4,1.6-7.6c4-1.7,10.7-1.3,13.6-0.4
			c2.8,1,5.5,2.5,7.8,4.3c1.4,1.1,2.8,2.3,4,3.5c6.2,5.8,9.8,13.9,12.7,21.9c1.2,3.4,2.4,6.9,3.6,10.3c1.6,4.6,3.6,9.1,6,13.3
			c6.8,11.4,17.7,19.6,27.2,28.9c7.8,7.8,15,17.4,16.8,28.1c0.4,2.1,0.5,4.3,0.4,6.5l14.1-1.7c15.1-20.3,34.7-36.9,57.4-48.2"/>
		<path class="st15" d="M1195.6,592.4c15-7.4,31-12.5,47.6-15c6.8-1,13.8-1.6,20.7-1.8c4.9-0.1,11.3,1.4,11.6,6.3
			c0.2,2.8-2,5.2-4.6,6.2s-5.4,1-8.2,1.1c-7.5,0.1-15,0.9-22.4,2.3c-8.7,1.6-17.2,4-25.5,7.2c-22.8,8.7-43.2,22.8-59.5,41.1"/>
		<path class="st15" d="M1193.7,593.3c0.6-0.3,1.3-0.6,1.9-1"/>
		<path class="st15" d="M1033.5,681.8c10,6,21.2,9.6,32.8,10.5"/>
		<path class="st15" d="M1142.4,688.8c18.2-5.9,32.4-20.3,38-38.6c0.7-3,1.7-6,2.9-8.9c1.3-2.8,3.5-5.4,6.5-6.4
			c3.7-1.2,7.6,0.2,11.4,0.9c18.5,3.6,36.4-8.4,40.1-26.9c1-5.2,0.8-10.7-0.6-15.8"/>
		<path class="st15" d="M1242.8,575.2c0.3-10.4-6.2-20.5-15.4-25.3c-2.2-1.2-4.6-2-7.1-2.5c-5.1-0.9-10.3-0.3-15.1,1.8
			c-4.3,1.8-8.1,4.6-11.1,8.1c-2,2.4-3.6,5.1-4.7,8.1c-1.7,4.8-2,10-3.7,14.8c-2.7,7.2-8.3,12.8-14.5,17.4c-1.7,1.2-3.4,2.4-5.2,3.5
			c-8.2,5.3-17,10.2-23,17.8"/>
		<path class="st15" d="M1228.7,549.5c3.1-7.1,4.1-14.9,2.9-22.5"/>
		<path class="st15" d="M1053.1,530.4c5.8-3.4,12.2-9.2,15.3-15.5c0.6-1.1,1-2.3,1.3-3.6c2-7.8,0.8-16-3.3-22.9
			c-1.2-2.2-3-4-5.2-5.2c-0.6-0.3-1.3-0.5-2-0.6c-1.2-0.2-2.3-0.3-3.5-0.3l-15-0.7c-9.9-0.5-19.9-0.9-29.6,1.4s-19,7.5-24,16.1
			c-6.7,11.5-3.5,27.5,6.6,36.1c3.9,3.2,8.6,5.4,13.6,6.4c8.6,1.8,18.2,0.6,25.5-3.7"/>
		<path class="st15" d="M1155.4,639.8L1155.4,639.8c13.1-0.4,30-5,41.4-11.3c5.3-3,10.4-6.6,14-11.5s5.6-11.2,4.4-17.2"/>
		<path class="st15" d="M1081.4,656.7c-16,2.3-32.2-3-43.9-14.2c-3.9-3.8-7.4-8.4-12.6-10.2"/>
		<path class="st15" d="M1091,530.8c-8.2,4.9-17,8.8-26.1,11.7"/>
		<path class="st15" d="M1048.5,548.9l-17.5,6.4c-6.6,2.4-9.8,9.7-10.3,16.2c-0.6,7.3,2.7,13.5,6.9,19.4c7.1,9.9,19.1,17,30.2,21.7
			c12,5.1,25.2,7,38.1,5.5"/>
		<path class="st15" d="M1110.1,612.3c6.8-4,13.7-8.2,18.7-14.2s7.9-14.5,5.3-22"/>
		<path class="st15" d="M1122.5,636.8c5.4-1.3,10.1-4.7,13.9-8.8c2.5-2.8,4.7-5.8,6.6-8.9c1-1.6,2-3.2,2.9-4.7
			c4.9-8.2,10-16.7,11.4-26.2s-1.7-20.3-10-25.2c-5.1-3-11.5-3.4-17.4-2.2c-4.2,0.8-8.5,2.5-11.4,5.7c-1.7,1.9-2.9,4.3-3.5,6.8
			c-1,3.9-1,8.2-0.9,12.3c0.2,6.7,0.1,14.1-4.3,19.1"/>
		<path class="st15" d="M1171.2,597.6c3.6-3,6.1-9.7,5.8-14.4s-2.2-9.2-3.9-13.5c-0.2-0.5-0.4-1-0.6-1.5c-1.6-3.9-3.1-7.9-3.4-12
			c-0.4-5.5,1.1-11,1.5-16.5c0.7-8.7-2-18.1-8.6-23.8c-0.5-0.5-1.1-0.9-1.6-1.3c-6.7-4.6-16.4-4.9-22.3,0.6c-3,2.8-4.8,6.7-7.1,10.2
			s-5.8,6.6-9.9,6.6"/>
		<path class="st15" d="M1041,577.3c3.5,0.2,6.9-0.2,10.3-1c3.5-0.9,6.9-2.3,10-4.1"/>
		<path class="st15" d="M1072.7,566.2l17.6-8.7c4.2-2.1,8.4-4.2,12.6-6.2c4.7-2.3,9.4-4.7,12.8-8.7c2.5-3.1,4-6.9,4.4-10.8
			c0.3-2.4,0.2-4.8-0.3-7.2c-1.4-6.3-4.6-12-9.3-16.4"/>
		<path class="st15" d="M1090.6,558.2c10,0.5,19.1,6,24.1,14.7"/>
		<path class="st15" d="M1141.1,559.9c6.9-6.3,11.2-14.9,12.2-24.1"/>
		<path class="st15" d="M1171.4,538.3c4.4-3.1,9.6-4.9,15.1-5.3"/>
		<path class="st15" d="M1173,567.9c4.7-6.8,12.5-10.9,20.8-10.9"/>
		<path class="st15" d="M1204.7,548.1c5.2-9,3.7-20.3-3.6-27.7c-4.9-4.8-11.8-7-18.6-7.6s-13.7,0.5-20.4,1.5"/>
		<path class="st15" d="M1213.6,513.7c4.5,7.3,6.6,15.9,5.8,24.4"/>
		<path class="st15" d="M1193.6,593.4l0.1-0.1c0.6-0.3,1.3-0.6,1.9-1l0,0c10.1-5.4,19.4-15.8,23.3-26.3"/>
		<path class="st15" d="M1213.6,562.9c4.8,0.2,9.3,2.7,12,6.7"/>
		<path class="st15" d="M1051.4,576.8c5.4,4.8,11.1,9.2,18.2,11.1"/>
		<path class="st15" d="M1085.9,589.3c5.4,0.6,10.8,0,16-1.7"/>
		<path class="st15" d="M1065.2,515.3c6.5,4.4,16.9,0.6,18.9-7c3,3.7,8.5,4.3,12.2,1.3c1.9-1.6,3.1-3.9,3.2-6.4
			c1.8,2.4,4.3,4.1,7.2,4.9c1.3,0.4,2.7,0.5,4,0.5c4.4-0.2,8.4-2.6,10.7-6.3c5.9,4.8,15.9,3,19.8-3.6c2.5,6.2,11.8,8.3,16.6,3.6
			c3.5,4,9.5,4.5,13.7,1.2c6.3,6,16,6.6,23,1.4c3.5,8.2,14.8,11.7,22.4,7c1.4,4.6,6,7.5,10.8,6.7c0.3,3.1,1.6,6,3.8,8.2
			c2,2,4.6,3.3,7.4,3.7c-1.9,2.8-1.3,6.7,0.6,9.5s4.7,4.8,7.5,6.6l18.7,12.7c1.9,1.5,4.2,2.6,6.5,3.2c2.4,0.5,5.2-0.3,6.5-2.4
			c2.2-3.7-1.5-8-4.8-10.7c-8.3-6.8-9.5-18.2-13.8-28.1c-1.3-2.9-2.6-6-5.1-8s-6.5-2.5-8.7-0.2c0.3-8.1-6-14.9-14.1-15.2
			c-1.9-0.1-3.7,0.2-5.5,0.9c0.2-6.6-5-12.1-11.7-12.3c-1.8-0.1-3.6,0.3-5.3,1.1c-1.2-7.7-10.6-12.9-17.8-9.8
			c-6.5-6.2-16.2-7.7-24.2-3.6c-10.7-9.8-28.3-10.9-40.2-2.6c-11.2-7.9-28.2-5.9-37.2,4.3c-11-5.3-26.3-2.2-35.9,5.4"/>
		<path class="st15" d="M1002,550.6c0.9-3.2,2.7-6.1,5.2-8.3"/>
	</g>
	<g id="stroke-cat">
		
			<linearGradient id="SVGID_1_" gradientUnits="userSpaceOnUse" x1="307.41" y1="165.525" x2="465.91" y2="165.525" gradientTransform="matrix(1 0 0 -1 0 1122)">
			<stop  offset="0" style="stop-color:#00FFFF"/>
			<stop  offset="1" style="stop-color:#0071BC"/>
		</linearGradient>
		<path class="st17" d="M462.9,802.4l-54.1,217.2c0,0-98.4-4.5-98.4,91h150.9"/>
		
			<linearGradient id="SVGID_00000137836165184160127330000003847250196290628019_" gradientUnits="userSpaceOnUse" x1="832.36" y1="146.905" x2="1075.3" y2="146.905" gradientTransform="matrix(1 0 0 -1 0 1122)">
			<stop  offset="0" style="stop-color:#00FFFF"/>
			<stop  offset="1" style="stop-color:#0071BC"/>
		</linearGradient>
		
			<path style="fill:none;stroke:url(#SVGID_00000137836165184160127330000003847250196290628019_);stroke-width:6;stroke-linecap:round;stroke-linejoin:round;" d="
			M865.7,830.7c0,0,41.3,47.2,75.5,63.6l-23.9,131.3c0,0-82,29.8-82,94h135.7l101.2-288.9"/>
		
			<linearGradient id="SVGID_00000049923131763603558340000000978695000401910676_" gradientUnits="userSpaceOnUse" x1="504.81" y1="158.495" x2="565.88" y2="158.495" gradientTransform="matrix(1 0 0 -1 0 1122)">
			<stop  offset="0" style="stop-color:#00FFFF"/>
			<stop  offset="1" style="stop-color:#0071BC"/>
		</linearGradient>
		
			<line style="fill:none;stroke:url(#SVGID_00000049923131763603558340000000978695000401910676_);stroke-width:6;stroke-linecap:round;stroke-linejoin:round;" x1="507.8" y1="1043.2" x2="562.9" y2="883.8"/>
		
			<linearGradient id="SVGID_00000051359097936603545140000003687679110158706822_" gradientUnits="userSpaceOnUse" x1="318.3188" y1="918.4694" x2="438.4532" y2="918.4694" gradientTransform="matrix(0.9896 0.1438 0.1438 -0.9896 -120.8819 1084.974)">
			<stop  offset="0" style="stop-color:#00FFFF"/>
			<stop  offset="1" style="stop-color:#0071BC"/>
		</linearGradient>
		
			<path style="fill:none;stroke:url(#SVGID_00000051359097936603545140000003687679110158706822_);stroke-width:6;stroke-linecap:round;stroke-linejoin:round;" d="
			M323,264.6c7.5-31.4,21.1-75.8,38.1-80c20.9-5.2,61.7,48.3,78.4,71.8"/>
		
			<linearGradient id="SVGID_00000137850710631993060410000002688056540813472157_" gradientUnits="userSpaceOnUse" x1="131.6678" y1="560.767" x2="1486.7125" y2="560.767" gradientTransform="matrix(1 0 0 -1 0 1122)">
			<stop  offset="0" style="stop-color:#00FFFF"/>
			<stop  offset="1" style="stop-color:#0071BC"/>
		</linearGradient>
		
			<path style="fill:none;stroke:url(#SVGID_00000137850710631993060410000002688056540813472157_);stroke-width:6;stroke-linecap:round;stroke-linejoin:round;" d="
			M374.3,258.2c63.3-5.5,122.6,3.8,122.6,3.8s87.9-80.6,119.2-67.1s16.4,181.9,16.4,181.9s41.8,14.9,53.7,35.8
			c0,0,298.2-73.2,402.7-47.7s134.2,44.7,134.2,44.7c51.1,0,95.5-50.3,120-95.2c24.6-45.4,31.3-98.4,18.9-148.5
			c-5.7-22.7-21.7-42.6-47.3-42.7c-45.3-0.1-44.3,42.1-69.7,65.8c-17.3,16.2-46.6,15.8-65.7,1.8s-28.5-39.1-26.9-62.9
			s12.8-46,27.9-64.4c52.6-64.2,144.6-79.6,215.2-35.8c56.2,34.8,87.2,102.4,88.3,168.5s-24.3,130.6-60.7,185.9
			s-81.6,107.1-128.2,154.1c19.4,50.7-9,293.8-9,293.8l-25.3,289.3h-187.9c6-47.7,92.4-91,92.4-91l-19.4-138.7
			c-27-10.6-53.2-35.8-73.3-59.2c-13.5-15.7-25.9-32.3-37.1-49.6c-13.4,17.5-97.8,36.5-169.5,49.7c-56.4,10.6-105,17.4-105,17.4
			l-113.2,271.4H461c0-3.1,0.1-6.1,0.3-9c2.9-37.1,23.9-56.8,46.5-67.3c29-13.5,60.6-11.7,60.6-11.7L563,883.8l-0.5-11.8
			c-40-22.3-72.8-46.1-99.6-69.5c-87.9-77-110.7-149.8-110.7-149.8s-94,11.9-114.8,7.5s-88-76.1-100-89.5s19.4-49.2,32.9-74.6
			s11.9-119.2,79-190.8C277.9,274.7,327.1,262.3,374.3,258.2z"/>
	</g>
	<g id="shapes" class="st22">
		<circle class="st23" cx="141.6" cy="830.9" r="141.6"/>
		<circle class="st23" cx="786.6" cy="240.2" r="30.7"/>
		<circle class="st23" cx="835.4" cy="985.2" r="21.8"/>
		<circle class="st23" cx="1480.8" cy="850.6" r="55.6"/>
	</g>
</g>
</svg>
