<?xml version="1.0" encoding="utf-8"?>
<!-- Generator: Adobe Illustrator 26.0.1, SVG Export Plug-In . SVG Version: 6.00 Build 0)  -->
<svg version="1.1" id="Capa_1" xmlns="http://www.w3.org/2000/svg" xmlns:xlink="http://www.w3.org/1999/xlink" x="0px" y="0px"
	 viewBox="0 0 1922.3 1192.5" style="enable-background:new 0 0 1922.3 1192.5;" xml:space="preserve">
<style type="text/css">
	.st0{fill:#00426B;}
	.st1{fill:#05344C;}
	.st2{fill:#E05A2B;}
	.st3{fill:#C62914;}
	.st4{fill:#EA3213;}
	.st5{fill:#EDAB7A;}
	.st6{fill:#B22222;}
	.st7{fill:#AD2828;}
	.st8{fill:none;stroke:#7A230C;stroke-width:6;stroke-linecap:round;stroke-linejoin:round;}
	.st9{fill:none;stroke:url(#SVGID_1_);stroke-width:6;stroke-miterlimit:10;}
	.st10{fill:none;stroke:url(#SVGID_00000179609894018141362200000016116487644374377883_);stroke-width:6;stroke-miterlimit:10;}
	.st11{fill:none;stroke:url(#SVGID_00000043434014792860569460000006260665857644604038_);stroke-width:6;stroke-miterlimit:10;}
	.st12{fill:none;stroke:url(#SVGID_00000118376729881536579080000006336833667150440096_);stroke-width:6;stroke-miterlimit:10;}
	.st13{fill:none;stroke:url(#SVGID_00000040534293180313849900000000022454217099725471_);stroke-width:6;stroke-miterlimit:10;}
	.st14{fill:none;stroke:url(#SVGID_00000110451904541351706160000017217426811913527173_);stroke-width:6;stroke-miterlimit:10;}
	.st15{fill:none;stroke:url(#SVGID_00000120544424448812376280000004067804055851458966_);stroke-width:6;stroke-miterlimit:10;}
	.st16{fill:none;stroke:url(#SVGID_00000054257022699889896590000012306611028397607048_);stroke-width:6;stroke-miterlimit:10;}
	.st17{fill:none;stroke:url(#SVGID_00000024694313356567568230000011734454825561521085_);stroke-width:6;stroke-miterlimit:10;}
	.st18{fill:none;stroke:url(#SVGID_00000152256144632448183200000000525455213097797539_);stroke-width:6;stroke-miterlimit:10;}
	.st19{fill:none;stroke:url(#SVGID_00000137123097901683554280000010486344431187224989_);stroke-width:6;stroke-miterlimit:10;}
	.st20{display:none;}
	.st21{display:inline;fill:#EA3213;}
	
		.st22{opacity:0.6;fill:#00426B;stroke:url(#SVGID_00000165942627628886621500000013695734378397912235_);stroke-width:6;stroke-linecap:round;stroke-linejoin:round;enable-background:new    ;}
</style>
<g id="Capa_2_00000137825721467812467520000003497118765627155629_">
	<g id="color_dog">
		<path class="st0" d="M258.3,553.7c-4.8,6.4-17.2,30.4-17.2,30.4c-4.6-22,11-113.3,11-113.3l-20.3,15.4l10.9-102.6
			c0,0-14.9,10.9-16.4,7.8s3.1-70.4,3.1-70.4s-18,8.6-17.3,3.9s11.8-35.2,0-49.3s-71.3-11-107.3-22S58.7,232.4,40.6,212
			S3,137.7,3,121.2s33.7-18.8,38.4-18s105-29.7,105-29.7s15.6-17.3,21.1-25.8s31.3-29,36-32.9S274-1.8,321,10.7s87.7,94.8,88.5,97.1
			s7.8,20.4,29.7,44.7s119.8,154.3,119.8,154.3s18.8,4,41.5,7.1s51.7,26.6,51.7,26.6s6.3-1.6,38.3-3.9s70.5,21.8,70.5,21.8
			s-7,2.5,28.2,4s18.1,7,36.1,13.3s30.5,3.1,54.8,1.6s166,6.3,228.7,14s123.8,17.3,123.8,17.3l16.4,7.1l22.7-4.7l14.1-5.5h16.4
			c7.2-6.7,14.8-12.9,22.7-18.8c10.9-7.8,36,1.6,36,1.6s123.9-70,264.2-134.2c136.9-62.7,287.9,33.8,295.1,38.4
			c-39.1-19.8-197.3,16-212.9,19.6c31.9-6.1,112.2,30.2,121.4,34.5c-54-22.6-129.1,17.9-129.1,17.9c23.5,37.6,63.8,17.1,63.8,17.1
			c-21.1,52.5-132.2,70.2-132.2,70.2c15.7,21.9,67.4,0,67.4,0c-2.4,42.3-107.4,49.3-107.4,49.3c0.8,33,40,28.2,40,28.2
			c-23.5,42.3-81.4,35.3-81.4,35.3c5.5,26.6,45.4,24.3,45.4,24.3c-39.1,48.6-99.5,20.3-99.5,20.3c-0.8,18,13.4,37.6,13.4,37.6
			c-55.7-5.5-106.5-102.6-106.5-102.6c-15.7,14.1-47,9.4-47,9.4c34.4,37.6,51.7,162.9,47,149.6c-2.9-8-8.8-14.4-16.5-18
			c0,0,4.7,50.1,12.6,115.9s87,97.9,87,97.9l11.7,214.6c-19.6,6.3-38.3,36-38.3,36h-109c-3.1-36.8,50.9-45.4,50.9-45.4l9-39.8
			l6.6-29.1l-38.2-55.7l-28.4-41.4c0,0-89.3-29-159.8-51s-119.8-96.3-119.8-96.3l-27.4,21.2l15.7-51.7c-8.3,29.6-61.5,43-64.8,43.8
			c8.4-6.4,29.1-41.5,30.3-43.7C999,791.7,870,819,870,819l15-22.7c-89.3,51.7-273.4,63.4-273.4,63.4c28.9,25.8,50.4,72.9,51.6,75.8
			c-8-10.8-37.5-13.2-37.5-13.2c28.1,22,44.4,101.4,45.3,106.3c-4-13.1-24.2-14.6-24.2-14.6c14.1,24.3,5.5,76.7,5.5,76.7
			c-4.7-19.6-36.8-19.6-36.8-19.6c18.8,20.3,7,45.4,7,45.4c-0.8-11.7-25-15.7-25-15.7c-0.8,31.4-47.8,88.5-47.8,88.5H422
			c5.5-31,54.1-47,54.1-47c1.7-6.8,4.6-11.2,7.6-14.1c3-3,6.9-4.9,11.1-5.4l-6.4-60l-10.8-102.1l-25.9-132.4
			c0,0-74.4-50.1-108.1-84.6s-71.3-123-71.3-123l-7.8,16.5C247.3,599.6,257.5,556.7,258.3,553.7z"/>
		<path class="st1" d="M488.5,1063l6.4,60c-4.2,0.5-8.1,2.4-11.1,5.4H426c3.1-56.4,58-65,58-65L488.5,1063z"/>
		<path class="st1" d="M1378.6,979.5l38.2,55.7l-6.6,29.1h-92c2.5-43.9,60.4-59.2,60.4-59.2L1378.6,979.5z"/>
	</g>
	<g id="musculo">
		<path class="st2" d="M237.4,166.2c10.3,2.1,18.9,3.6,24.2,3.5l15-0.2c-0.4,3.3-0.5,6.7-0.4,10c0.2,8.2,1.5,14.4,1,21.8
			c-0.2,3.6-4.9,9.5-11,15.8c-2.1,2.2-4.4,4.4-6.7,6.6c-27.1,2.2-42.7-20.2-50.1-31.7s-30.6-33.9-30.6-33.9l0.3-2.4
			C199.4,157.9,220.8,162.8,237.4,166.2z"/>
		<path class="st2" d="M333,58.3c2.4,1.8,4.9,3.5,7.4,5.2c-5.2,10.2-9.2,21-12.1,32.1l0,0c-12.3,18.6-51.2,21.9-51.2,21.9
			c-5.9-7.3-29.1-20.3-43.1-17.8s-43.9,27.1-71.2,32.4s-110.4,12-110.4,12l-8.7,5.8c-2.2-7.5-3.4-12.6-3.4-12.6
			c-1.8-15.5,54.3-15.4,68.7-17.4s41.9-5.2,49.8-10.3s26.4-30,35.8-43.8s22.8-24.8,42.8-20.7c15.2,3.1,31.7,1.5,47,0.6
			C301.7,44.7,318.5,47.4,333,58.3z"/>
		<path class="st2" d="M462.9,610.9L462.9,610.9c-0.9,40-0.4,84.2,3,90.2c-3.4-5-6.4-9.6-8.5-13.5c-10.6-19.3-37.9-71.2-51.9-86.5
			c-5-5.5-17.3-21.7-31-40.4l0.2-0.2c0,0-1.1-6.7,0-36.8c0.1-2,0.1-4.4,0-7.1c0,0,10.3-29.4,14.8-75.9c0,0,28,57.5,41.3,83
			S463.2,595.5,462.9,610.9z"/>
		<path class="st2" d="M374.7,516.6c0.1,2.7,0.1,5.1,0,7.1c-1.1,30.1,0,36.8,0,36.8l-0.2,0.2C349.6,527,320,485.4,320,485.4
			c-1.7-21.3-3.5-43.4-7.6-67.9c-11.3-67.8-33.9-119.7-46.3-139.8c-10.8-17.5-24.9-30.8-32.1-32.5c0,0,13.5-10.5,25.4-21.6
			c2.3-2.2,4.6-4.4,6.7-6.6c0,0,38.9,39.1,58.9,67.3c19.7,27.8,30,69.2,30.3,70.5l0,0C361.7,391.9,373.8,481.7,374.7,516.6z"/>
		<path class="st3" d="M580.8,905c-2.2,15.9-4.4,32-6.3,44.7c-6,40-4.7,157.5-8.7,158.3c-2.2,0.4-8,1.6-12.7,2.5l-0.3-2.5
			c0,0-6.8-116.1,0.8-135.2S577.4,930.3,580.8,905z"/>
		<path class="st3" d="M545.9,786.3c2.2,1.9,4.5,3.7,6.8,5.4c-7.2,16.5-13.2,33.5-18.1,50.8c-7.3,26.3-12.6,102.4-12.7,103.9
			C513.8,893.1,502,774,502,774s1.3-16-1.3-23.3c-0.7-1.5-1.5-3-2.4-4.4C499.1,747,525.6,769.5,545.9,786.3z"/>
		<path class="st3" d="M325,120c0,19,11,105.6,19.6,167c-22.3-71.2-68.1-107.7-68.1-107.7h-0.4c-0.1-3.3,0.1-6.7,0.4-10
			c0.2-1.5,0.4-3,0.6-4.6c2.7-16.6,5.9-39.9,0-47.2c0,0,38.9-3.3,51.2-21.9C326.2,103.5,325.1,111.7,325,120z"/>
		<path class="st3" d="M353.7,345.7c0.5,2.5,1,5.5,1.6,9.1c-0.3-1.3-10.6-42.7-30.3-70.5C305,256,266.1,217,266.1,217
			c6.1-6.3,10.7-12.2,11-15.8c0.5-7.3-0.9-13.6-1-21.8h0.4c0,0,45.8,36.4,68.1,107.7C348.4,314.1,351.8,336.3,353.7,345.7z"/>
		<path class="st3" d="M526.9,329.7c0,0,2.8,2.4,7.7,6.3c0,0-20.4,67.5-28.8,86.1c-7.3,16.1-29.2,80.4-37.1,113.9
			c-1.2,5.2-2.1,9.6-2.5,13c-1.3,10.2-2.5,35.1-3.1,61.9l0,0c0.3-15.4-18.8-61.7-32.1-87.2s-41.3-83-41.3-83c1.2-12,2-25.2,2.1-39.2
			c0.6-68.5,4.6-101.3,2.6-130.4s-8-149.7-8-151c1.5,2.4,3,4.7,4.5,7.1c23.6,37.5,74.7,114.8,87.3,129.7
			C490.6,271.8,526.9,329.7,526.9,329.7z"/>
		<path class="st4" d="M1429.3,1000.2c22.9,35.5,20.5,81.6,19,82.5l0,0l-11.8,0.5c0,0,1.3-63.2-3.3-75.8
			C1432,1005,1430.7,1002.6,1429.3,1000.2z"/>
		<path class="st4" d="M1460.4,931l4,90.8h-0.8c-1.4-15.2-29.3-56.2-28.9-77c0.4-20.4-5.2-40.8-5.4-41.4
			C1446.8,919.8,1460.4,931,1460.4,931z"/>
		<path class="st4" d="M1352.4,875.9c4.8,8.8,8.8,18.1,11.8,27.6c0,0-25.6-9.1-74.8-32.5c18.3-7.8,16.5-35.1,16.4-35.7
			C1323.5,846,1339.1,852.6,1352.4,875.9L1352.4,875.9z"/>
		<path class="st4" d="M1354,809.9c2.5,10,10,22.2,19.7,34.8c-17.1-20.2-49.2-32.8-49.2-32.8c-6-12-13.2-25.4-21.6-40
			c-36.3-63-34.5-96.2-31.5-126.9s8.9-162.6,8.9-162.6l1.1-0.4l7.9,13.3c1.2,2,19.4,53.9,41.4,123.6S1354,809.9,1354,809.9z"/>
		<path class="st5" d="M594.2,752.7c1.1,24-4.4,52.1-4.4,52.1v24.1c-0.6-9.2-11.1-17.8-24-27.4c0,0-17.9-38.1-21.8-64
			s9-32.2,27.9-59.2c0.8-1.1,1.5-2.3,2.3-3.5l0,0c0,0,16.2,44.7,19.4,69.9C593.9,747.2,594.1,749.9,594.2,752.7z"/>
		<path class="st5" d="M1305.7,835.3c0,0.6,1.9,28-16.4,35.7c-7.6-3.6-15.8-7.6-24.5-11.9c-28.4-14.1-53.5-26.6-74-38.3
			c0,0-16.3-69.2-22.2-101.2c-4.9-26.3-8.5-71.8-19.8-108.7c0,0,29.1,9.9,42-13.2c-1.7,4.5-2.9,9.1-3.7,13.8
			c-4.8,30.2,7.5,109.2,27.2,145.5s39.3,36.4,71.4,64C1291.9,826.3,1298.7,831.1,1305.7,835.3z"/>
		<path class="st4" d="M1778.7,270.1c-9.3,5.7-30.4,7.5-36.6,8.5c-26.4,4.4-53.4,10.9-78.3,20.6s-51.1,19-74.3,32.4
			c-29,16.7-56.3,34.4-86.8,48c-28.6,12.8-57.2,25.6-85.7,38.5c-42.7,19.2-85.5,38.5-128.1,57.9c-2.8,1.3-6,2.3-8.6,3.9
			c0,0-29.9,18.2-40.4,32.2c-9,12.1-38.1,54.7-49,85.6c-12.9,23.2-42,13.2-42,13.2c-2.3-7.8-5.2-15.5-8.7-22.8
			c-18.4-38.8-63.1-86.8-63.1-86.8c8.7-31.5,57-62.8,57.8-63.3c24.1,3.4,40.6,5.8,43.7,6.1c12,1.4,72.9,13.3,84.4,12.4
			c9.8-0.7,21.2-7.8,30.1-11.5c20.8-8.7,41.4-17.8,62-26.9c43.2-19,85.2-40.9,128.7-59.2c19.1-8,37.6-13.8,56.5-23.5
			c20.6-10.6,41.1-21.6,61.2-33.2c30.4-17.5,65.1-26.1,98.4-36.5c16.1-5,38.5-9.5,55.3-9.2c3.3,0.1,29.3,0.7,28.2,8.2
			C1782.8,266.9,1781.2,268.6,1778.7,270.1z"/>
		<path class="st2" d="M1464.3,1021.9l2.6,60l-18.7,0.8c1.5-0.9,3.9-47-19-82.5l0,0c-14.9-25.2-65.1-96.7-65.1-96.7
			c-3-9.6-6.9-18.8-11.8-27.6l0,0c-0.4-1.2-8.3-25.2-27.9-64c0,0,32.1,12.7,49.2,32.8c15.8,20.4,37.7,42.2,55.6,58.8l0,0
			c0.2,0.6,5.8,20.9,5.4,41.4c-0.4,20.8,27.5,61.8,28.9,77L1464.3,1021.9z"/>
		<path class="st2" d="M1305.7,835.3c-7.1-4.2-13.8-9-20.1-14.3c-32.1-27.6-51.7-27.7-71.4-64s-32-115.3-27.2-145.5
			c0.8-4.7,2.1-9.3,3.7-13.8c10.9-30.9,40-73.5,49-85.6c10.5-14,40.4-32.2,40.4-32.2l1.3,2.1l-1.1,0.4c0,0-5.9,132-8.9,162.6
			s-4.8,63.9,31.5,126.9c8.4,14.6,15.6,28,21.6,40c19.6,38.8,27.5,62.8,27.9,64C1339.1,852.6,1323.5,846,1305.7,835.3z"/>
		<path class="st2" d="M1190.8,820.8c-26.6-15.1-45.4-28.7-53.8-42.2c-12.9-20.8-21.8-84.4-24-100.6c-0.3-2.4-0.5-3.8-0.5-3.8
			s-0.3-0.4-0.9-1c-7.1-24.4-38.5-135.2-36-165.3c0.2-2.3,0.6-4.5,1.2-6.7c0,0,44.7,48,63.1,86.8c3.4,7.4,6.3,15,8.7,22.8
			c11.3,36.9,15,82.3,19.8,108.7C1174.5,751.7,1190.8,820.8,1190.8,820.8z"/>
		<path class="st2" d="M1111.6,673.3c0.1,0.3,0.2,0.6,0.3,0.9c-8.8-1.1-17.8-1.1-26.6,0.1c-16,2-49.9,14.6-78.1,28.1
			S877,759.2,807.7,774s-218,30.8-218,30.8s5.5-28.1,4.4-52.1h0.2c0,0,133-75.8,209.9-94.8s174.3-22.3,192.5-20.9
			c6,0.4,14.9,1.8,25,3.5c20.4,3.5,45.2,8.9,57.9,12.5C1095.7,657.5,1108.2,669.7,1111.6,673.3z"/>
		<path class="st5" d="M1134.7,438c-0.8,0.5-49.2,31.8-57.8,63.3c-0.6,2.2-1,4.4-1.2,6.7c-2.5,30.1,28.9,140.9,36,165.3
			c-3.4-3.6-15.9-15.8-32.1-20.3c-12.8-3.6-37.5-8.9-57.9-12.5c0,0-15.5-35.4-36.1-86.9s-77.8-142.5-77.8-142.5l0.2-1.9
			C977.7,416,1077.7,429.9,1134.7,438z"/>
		<path class="st3" d="M985.5,553.5c20.6,51.5,36.1,86.9,36.1,86.9c-10-1.7-19-3-25-3.5c-18.1-1.3-115.6,2-192.4,21
			s-209.8,94.8-209.8,94.8h-0.2c-0.1-2.8-0.3-5.5-0.7-8.1c-3.1-25.2-19.4-69.9-19.4-69.9l0,0c16.6-27.2,15.6-69.2,15.6-69.2
			c20.8-9.1,40.3-16.4,52.1-21.4c24.2-10.3,34.3-22.3,57-49.7c22.4-27.2,38.7-85.3,39-86.4c19.5-6,36.3-13.7,44.2-19.8
			c13.9-10.7,33.2-24.9,33.2-24.9c19.6,0.7,38.4,1.5,55.2,2.6c10.9,0.7,23.6,1.8,37.5,3.2l-0.2,1.9
			C907.8,411.1,964.9,502,985.5,553.5z"/>
		<path class="st2" d="M737.8,448c-15,4.6-31.5,8.2-46.7,9.4c-34.9,2.7-73.1-2-119.3,2.7S468.6,536,468.6,536l0,0
			c7.9-33.4,29.8-97.7,37.1-113.9c8.4-18.6,28.8-86.1,28.8-86.1c20,16,41.1,30.5,63.2,43.5c32.4,18.8,133,20.7,217.5,23.9
			c0,0-19.3,14.1-33.2,24.9C774.2,434.3,757.3,442,737.8,448z"/>
		<path class="st4" d="M737.8,448c-0.3,1.1-16.6,59.2-39,86.4c-22.6,27.4-32.8,39.4-57,49.7c-11.8,5-31.3,12.3-52.1,21.4
			c-22,9.6-45.4,21.2-62.9,34.1c-34.2,25.3-50.6,34.2-53.3,72.3c-2.6-3.6-5.2-7.3-7.5-10.7l-0.1-0.2c-3.4-5.9-3.9-50.2-3-90.2
			c0.6-26.8,1.8-51.8,3.1-61.9c0.4-3.4,1.3-7.8,2.5-13l0,0c0,0,57.1-71.3,103.3-76s84.3,0,119.3-2.7
			C706.4,456.2,722.9,452.6,737.8,448z"/>
		<path class="st3" d="M589.8,605.5c0,0,1,41.9-15.6,69.2c-0.7,1.2-1.5,2.4-2.3,3.5c-18.9,27-31.8,33.3-27.9,59.2s21.8,64,21.8,64
			c-4.2-3.1-8.6-6.4-13-9.8c-2.3-1.8-4.6-3.6-6.8-5.4c-20.3-16.7-46.8-39.2-47.6-39.9l0,0c-4.7-7.4-15.1-21-24.6-34.3
			c2.6-38.2,19.1-47.1,53.3-72.3C544.4,626.7,567.8,615.1,589.8,605.5z"/>
		<path class="st2" d="M589.8,830.5v6.7c0,0-4.3,33.7-9,67.8l0,0c-3.4,25.3-19.5,48.6-27.2,67.8s-0.8,135.2-0.8,135.2l0.3,2.5
			l-7.2,1.4c0,0-13.4-110.2-21.3-149.7c-0.8-4.1-1.7-9.4-2.7-15.7l0,0c0.1-1.5,5.4-77.6,12.7-103.9c4.9-17.3,11-34.3,18.1-50.8
			c4.4,3.4,8.8,6.6,13,9.8c12.9,9.6,23.4,18.3,24,27.4L589.8,830.5z"/>
		<path class="st2" d="M500.6,750.7c2.7,7.3,1.4,23.3,1.4,23.3s-26-20-51.2-39.2s-89.1-75.2-111.1-137.1
			c-14-39.6-16.6-74.5-19.7-112.3c0,0,29.6,41.6,54.5,75.3c13.8,18.7,26.1,35,31,40.4c14,15.3,41.2,67.2,51.9,86.5
			c2.2,3.9,5.1,8.6,8.5,13.5l0.1,0.2c2.4,3.5,4.9,7.1,7.5,10.7c9.5,13.3,19.9,26.9,24.6,34.3l0,0C499.1,747.7,500,749.2,500.6,750.7
			z"/>
		<path class="st2" d="M394.2,271.1c2,29.2-2,61.9-2.6,130.4c-0.1,14.1-0.9,27.2-2.1,39.2c-4.5,46.4-14.8,75.9-14.8,75.9
			c-0.9-34.9-13.1-124.7-19.4-161.9l0,0c-0.6-3.5-1.1-6.6-1.6-9.1c-1.8-9.4-5.2-31.5-9-58.6c-8.7-61.4-19.6-148-19.6-167
			c0.1-8.2,1.2-16.4,3.3-24.4l0,0c2.9-11.1,6.9-21.9,12.1-32.1c9.1,6.2,18.3,12.2,24.1,21.7c7.1,11.6,14.4,23.2,21.6,34.8l0,0
			C386.3,121.4,392.2,242.1,394.2,271.1z"/>
		<path class="st5" d="M179,155.5l-0.3,2.4c0,0,23.3,22.4,30.6,33.9s23,33.9,50.1,31.7c-11.9,11.1-25.4,21.6-25.4,21.6
			c-0.9-0.3-1.8-0.3-2.7,0c-5.5,1.9-53.1-2.7-82.6-4.9l-4.8-0.3c-28.9-2-57-17.8-72.7-29.4C60,202.4,49,168.6,43.6,150l8.7-5.8
			c0,0,83.2-6.7,110.4-12s57.2-30,71.2-32.5s37.2,10.5,43.1,17.8s2.7,30.6,0,47.2c-0.3,1.6-0.5,3.2-0.6,4.6l-15,0.2
			c-5.3,0.1-13.8-1.4-24.2-3.5C220.8,162.8,199.4,157.9,179,155.5z"/>
		<path class="st6" d="M625.8,705.7c10-5.7,20-11.2,30-16.8c10-5.6,20.1-11,30.2-16.5l30.3-16.3l30.4-16.1h0.1h0.1l29-12.1
			c9.7-4.1,19.4-8,29.1-12l0.4-0.2h0.4l17.6-1l17.6-0.9l17.6-0.9l17.6-0.8c11.8,0,23.5,0.2,35.3,0.4s23.5,0.4,35.3,0.7h0.1l12.4,2.3
			l-12.5-1.5h0.1c-11.8,0.4-23.5,0.7-35.2,1l-35.2,0.8l-17.6,1.2l-17.6,1.2l-17.6,1.2l-17.6,1.1l0.8-0.2c-9.7,4-19.4,8.1-29.1,12.1
			l-29.1,12l0.2-0.1l-30.6,15.7l-30.7,15.5c-10.3,5.1-20.5,10.2-30.8,15.3S636.1,700.7,625.8,705.7z"/>
		<path class="st6" d="M625.7,681.4c9.9-5.1,19.8-10.2,29.7-15.2c9.9-5,19.9-9.9,29.8-14.9l29.9-14.7l30-14.5l-0.2,0.1l25.3-14.8
			l12.7-7.4l12.7-7.3l0.3-0.2l0.4-0.1l26.1-5.5l26.2-5.3l0.3-0.1h0.2c9.1,0.4,18.3,0.8,27.4,1.3s18.3,0.9,27.4,1.4l27.4,1.5
			c9.1,0.5,18.3,1.1,27.4,1.8c-9.1,0-18.3,0-27.5-0.1l-27.4-0.3c-9.2-0.2-18.3-0.3-27.5-0.5s-18.3-0.3-27.4-0.6h0.5l-26.1,5.7
			l-26.1,5.6l0.7-0.3l-12.7,7.4l-12.7,7.3l-25.4,14.6h-0.1h-0.1l-30.2,14l-30.3,13.9c-10.1,4.6-20.2,9.2-30.4,13.7
			S635.9,677,625.7,681.4z"/>
		<path class="st6" d="M623.8,655.6c14.9-8.3,29.8-16.5,44.8-24.6s30-16.1,45.1-24.1s30-16.1,45.1-24l22.6-12l22.6-11.8l0.3-0.2
			l0.4-0.1c10.3-1.7,20.5-3.3,30.8-4.9l15.4-2.4l15.4-2.3h0.2h0.2l21.9,1.3l21.9,1.4l21.9,1.5c7.3,0.5,14.6,1.1,21.9,1.6
			c-7.3,0-14.7-0.1-22-0.3l-22-0.4l-22-0.5l-21.9-0.6h0.4l-15.4,2.7l-15.4,2.6c-10.2,1.8-20.5,3.5-30.8,5.2l0.7-0.2l-22.6,12
			L761,587.2L738.4,599c-7.6,3.9-15.1,7.9-22.7,11.7c-15.2,7.6-30.5,15.2-45.8,22.7S639.2,648.3,623.8,655.6z"/>
		<path class="st7" d="M443.7,243.2c1.2,9.9,2.1,19.7,2.9,29.6s1.3,19.8,1.5,29.8c0.1,5,0.1,10-0.2,15c-0.1,2.6-0.4,5.1-0.8,7.7
			c-0.1,0.7-0.3,1.3-0.5,2c-0.1,0.4-0.2,0.8-0.4,1.1l-0.4,1l-0.3,0.7c-0.1,0.2-0.2,0.5-0.3,0.8c-0.2,0.5-0.4,1.1-0.5,1.7
			c-2.8,9.3-5.2,19-7.6,28.5l-14.5,57.6c-4.9,19.2-9.9,38.4-15.3,57.5c3.4-19.5,7.3-39,11.5-58.4c2-9.7,4.3-19.4,6.5-29
			s4.6-19.3,7-28.9c1.2-4.8,2.5-9.6,3.8-14.4s2.6-9.6,4.2-14.4c0.2-0.6,0.4-1.2,0.7-1.8c0.1-0.3,0.2-0.6,0.4-0.9l0.5-1l0.1-0.3
			c0-0.1,0.1-0.1,0.1-0.2l0.1-0.3c0.1-0.2,0.2-0.4,0.2-0.6c0.2-0.5,0.3-1,0.4-1.6c0.5-2.3,0.8-4.7,0.9-7.1c0.4-4.9,0.5-9.8,0.6-14.7
			c0.1-9.9,0.1-19.8,0-29.7L443.7,243.2z"/>
		<path class="st7" d="M421.7,498.5c2.9-13.7,6-27.4,9.3-41l5-20.4l5.1-20.4c1.7-6.8,3.5-13.5,5.3-20.3s3.6-13.5,5.4-20.3
			c3.6-13.5,7.4-27,11.3-40.5l-0.1,0.4l1.5-14.6l1.6-14.6l1.7-14.6l0.9-7.3l1-7.3l-0.2,7.4l-0.2,7.4l-0.6,14.7l-0.7,14.7l-0.8,14.7
			v0.1l-0.1,0.2c-3.4,13.6-6.9,27.1-10.5,40.7c-1.8,6.8-3.5,13.5-5.4,20.3s-3.6,13.5-5.5,20.3l-5.7,20.2l-5.9,20.2
			C430.1,471.8,426.1,485.2,421.7,498.5z"/>
		<path class="st7" d="M494.3,297.9l-0.2,7.5l-0.3,7.5l-0.6,15l-0.8,15l-0.9,15v0.1l-0.1,0.2c-1.7,7-3.6,14-5.4,20.9
			s-3.7,13.9-5.5,20.9c-3.7,13.9-7.6,27.8-11.5,41.7l-6,20.8l-6.1,20.7c-4.2,13.8-8.4,27.6-13,41.3c3-14.1,6.4-28.1,9.8-42.1l5.2-21
			l5.4-20.9c3.7-13.9,7.4-27.9,11.3-41.7c1.9-6.9,3.8-13.9,5.9-20.8s3.9-13.9,6-20.8l-0.1,0.4l1.5-14.9l1.6-14.9l1.7-14.9l0.9-7.4
			L494.3,297.9z"/>
		<path class="st8" d="M386.2,120c-7.3-11.6-14.5-23.1-21.6-34.8c-5.8-9.5-15-15.5-24.1-21.7c-2.5-1.7-5-3.4-7.4-5.2
			c-14.6-10.9-31.3-13.6-48.7-12.5c-15.3,1-31.9,2.5-47-0.6c-20-4.1-33.5,6.9-42.8,20.7s-27.9,38.7-35.8,43.8s-35.4,8.3-49.8,10.3
			s-70.5,1.9-68.7,17.3c0,0,1.3,5.1,3.4,12.6c5.4,18.7,16.4,52.4,27.5,60.6c15.7,11.5,43.8,27.4,72.7,29.4l4.8,0.3
			c29.6,2.2,77.2,6.8,82.6,4.9c0.9-0.3,1.8-0.3,2.7,0c7.2,1.7,21.3,15,32.1,32.5c12.4,20.1,35,72,46.3,139.8
			c4.1,24.4,5.9,46.6,7.6,67.9c3,37.8,5.6,72.7,19.7,112.3c21.9,61.9,85.8,117.8,111.1,137.1S502,774,502,774s11.8,119.2,19.9,172.4
			"/>
		<path class="st8" d="M1429.3,903.5c-17.9-16.6-39.8-38.4-55.6-58.8c-9.8-12.7-17.2-24.8-19.7-34.8c0,0-1.2-121.2-23.2-191
			s-40.2-121.6-41.4-123.6l-7.9-13.3l-1.3-2.1l0.1-0.1c39.5-18,79.1-35.8,118.7-53.7c66-29.8,132.2-59.2,195.7-93.9
			c25.3-13.8,51.4-22.6,78.2-33.1c32.5-12.7,68.9-21,103.3-26.4c9.5-1.5,14-5.2,3.8-11c-8.3-4.8-25.4-3.9-34.6-3.1
			c-45.4,3.7-89.6,18.9-131.2,36.9c-18.3,7.9-35.1,19.2-53.4,27c-72.5,30.5-141.8,67.6-213.7,99.2c-19.1,8.4-38.2,16.8-57.4,24.8
			c-7.9,3.3-18,9.5-26.8,10.2c-11.6,0.8-72.4-11.1-84.4-12.4c-3.1-0.4-19.6-2.7-43.7-6.1c-57-8.1-157-22-226.8-28.8
			c-13.9-1.4-26.6-2.5-37.5-3.2c-16.8-1.1-35.6-1.9-55.2-2.6c-84.4-3.2-185.1-5.1-217.5-23.9c-22.1-13-43.2-27.5-63.2-43.5
			c-4.9-4-7.7-6.3-7.7-6.3s-36.2-58-48.8-72.9s-63.7-92.2-87.4-129.7c-1.5-2.3-3-4.7-4.5-7.1"/>
		<path class="st8" d="M1448.3,1082.7l18.7-0.8l-2.6-60l-4-90.8c0,0-13.6-11.2-31.1-27.5"/>
		<path class="st8" d="M1429.3,1000.2c1.4,2.3,2.7,4.8,3.8,7.3c4.7,12.6,3.3,75.8,3.3,75.8l11.8-0.5"/>
		<path class="st8" d="M580.8,905c4.7-34.1,9-67.8,9-67.8v-32.4c0,0,148.7-16,218-30.8s171.2-58.1,199.4-71.6s62.1-26.1,78.1-28.1
			c8.8-1.2,17.8-1.2,26.6-0.1l0.7,0.1c0,0,0.2,1.4,0.5,3.8c2.1,16.2,11.1,79.8,24,100.6c8.3,13.5,27.2,27.1,53.8,42.2
			c20.5,11.7,45.6,24.2,74,38.3c8.7,4.3,16.9,8.3,24.5,11.9c49.2,23.5,74.8,32.5,74.8,32.5s50.2,71.4,65.1,96.7"/>
		<path class="st8" d="M521.9,946.5c1,6.2,1.8,11.5,2.7,15.7c7.9,39.5,21.3,149.7,21.3,149.7l7.2-1.4c4.7-0.9,10.5-2,12.7-2.5
			c4.1-0.8,2.7-118.3,8.7-158.3c1.9-12.7,4.2-28.8,6.3-44.7"/>
		<path class="st8" d="M234,245.2c0,0,13.5-10.5,25.4-21.6c2.3-2.2,4.6-4.4,6.7-6.6c6.1-6.3,10.7-12.2,11-15.8
			c0.5-7.3-0.9-13.6-1-21.8c-0.1-3.3,0.1-6.7,0.4-10c0.2-1.5,0.4-3,0.6-4.6c2.7-16.6,5.9-39.9,0-47.2S248,97.3,234,99.8
			s-43.9,27.1-71.2,32.4s-110.4,12-110.4,12l-8.7,5.8"/>
		<path class="st8" d="M56.9,180.3c0,0,22.7,2.8,34.7-4.1s44.4-24.6,79.5-21.6c2.6,0.2,5.3,0.5,7.9,0.8c20.4,2.4,41.7,7.3,58.3,10.7
			c10.3,2.1,18.9,3.6,24.2,3.5l15-0.2"/>
		<path class="st8" d="M178.8,157.9c0,0,23.3,22.4,30.6,33.9s23,33.9,50.1,31.7"/>
		<path class="st8" d="M93.4,179.4c0,0,11.9,22,24.3,36.6s30.9,24.3,30.9,24.3"/>
		<path class="st8" d="M221.3,201.1c8.3-10.1,13.8-22.1,16-35"/>
		<path class="st8" d="M355.3,354.8c6.4,37.1,18.5,127,19.4,161.9c0.1,2.7,0.1,5.1,0,7.1c-1.1,30.1,0,36.8,0,36.8"/>
		<path class="st8" d="M328.3,95.7c-2.1,7.9-3.2,16.1-3.3,24.3c0,19,11,105.6,19.6,167c3.8,27.1,7.2,49.2,9,58.6
			c0.5,2.5,1,5.5,1.6,9.1"/>
		<path class="st8" d="M340.4,63.5L340.4,63.5c-5.2,10.2-9.2,21-12.1,32.1"/>
		<path class="st8" d="M498.2,746.3c0.9,1.4,1.7,2.8,2.4,4.4c2.7,7.3,1.4,23.3,1.4,23.3"/>
		<path class="st8" d="M466.1,701.3c2.4,3.5,4.9,7.1,7.5,10.7c9.5,13.3,19.9,26.9,24.6,34.3"/>
		<path class="st8" d="M320,485.4c0,0,29.6,41.6,54.5,75.3c13.8,18.7,26.1,35,31,40.4c14,15.3,41.2,67.2,51.9,86.5
			c2.2,3.9,5.1,8.6,8.5,13.5"/>
		<path class="st8" d="M498.2,746.3L498.2,746.3c0.8,0.7,27.3,23.2,47.6,39.9c2.2,1.9,4.5,3.7,6.8,5.4c4.4,3.4,8.8,6.6,13,9.8
			c12.9,9.6,23.4,18.3,24,27.4c0,0.5,0,1.1,0,1.6"/>
		<path class="st8" d="M374.7,516.6c0,0,10.3-29.4,14.8-75.9c1.2-12,2-25.2,2.1-39.2c0.6-68.5,4.6-101.3,2.6-130.4s-8-149.7-8-151
			l0,0"/>
		<path class="st8" d="M266.1,217c0,0,38.9,39,58.9,67.2c19.7,27.8,30,69.2,30.3,70.5l0,0"/>
		<path class="st8" d="M276.5,179.4c0,0,45.8,36.4,68.1,107.7"/>
		<path class="st8" d="M277.1,117.6c0,0,38.9-3.3,51.2-21.9l0,0"/>
		<path class="st8" d="M534.6,336c0,0-20.4,67.5-28.8,86.1c-7.3,16.1-29.2,80.4-37.1,113.9c-1.2,5.2-2.1,9.6-2.5,13
			c-1.3,10.2-2.5,35.1-3.1,61.9c-0.9,40-0.4,84.2,3,90.2l0.1,0.2"/>
		<path class="st8" d="M389.5,440.8c0,0,28,57.5,41.3,83s32.4,71.8,32.1,87.2"/>
		<path class="st8" d="M468.6,536c0,0,57.1-71.3,103.3-76s84.3,0,119.3-2.7c15.2-1.2,31.7-4.8,46.7-9.4c19.5-6,36.3-13.7,44.2-19.8
			c13.9-10.7,33.2-24.9,33.2-24.9"/>
		<path class="st8" d="M737.8,448L737.8,448c-0.3,1.1-16.6,59.2-39,86.4c-22.6,27.4-32.8,39.4-57,49.7c-11.8,5-31.3,12.3-52.1,21.4
			c-22,9.6-45.4,21.2-62.9,34.1c-34.2,25.3-50.6,34.2-53.3,72.3"/>
		<path class="st8" d="M589.8,605.5c0,0,1,41.9-15.6,69.2c-0.7,1.2-1.5,2.4-2.3,3.5c-18.9,27-31.8,33.3-27.9,59.2s21.8,64,21.8,64"
			/>
		<path class="st8" d="M589.8,804.8c0,0,5.5-28.1,4.4-52.1c-0.1-2.8-0.3-5.5-0.7-8.1c-3.1-25.2-19.4-69.9-19.4-69.9"/>
		<path class="st8" d="M594.4,752.7c0,0,133-75.8,209.9-94.8s174.3-22.3,192.4-20.9c6,0.4,14.9,1.8,25,3.5
			c20.4,3.5,45.2,8.9,57.9,12.5c16.2,4.5,28.7,16.8,32.1,20.3c0.6,0.6,0.9,1,0.9,1"/>
		<path class="st8" d="M907.7,411.1c0,0,57.1,91,77.8,142.5s36.1,86.9,36.1,86.9"/>
		<path class="st8" d="M552.7,791.7c-7.2,16.5-13.2,33.5-18.1,50.8c-7.3,26.3-12.6,102.4-12.7,103.9l0,0"/>
		<path class="st8" d="M552.7,1108c0,0-6.8-116.1,0.8-135.2s23.8-42.5,27.2-67.8l0,0"/>
		<path class="st8" d="M1134.7,438L1134.7,438c-0.8,0.5-49.2,31.8-57.8,63.3c-0.6,2.2-1,4.4-1.2,6.7c-2.5,30.1,28.9,140.9,36,165.3
			c0.1,0.3,0.2,0.6,0.3,0.9c0.7,2.5,1.1,3.9,1.1,3.9"/>
		<path class="st8" d="M1076.8,501.3c0,0,44.7,48,63.1,86.8c3.4,7.4,6.3,15,8.7,22.8c11.3,36.9,15,82.3,19.8,108.7
			c6,32.1,22.2,101.2,22.2,101.2"/>
		<path class="st8" d="M1352.4,875.9c4.8,8.8,8.8,18.1,11.8,27.6"/>
		<path class="st8" d="M1280.1,479.9c0,0-29.9,18.2-40.4,32.2c-9,12.1-38.1,54.7-49,85.6c-1.7,4.5-2.9,9.1-3.7,13.8
			c-4.8,30.2,7.5,109.2,27.2,145.5s39.3,36.4,71.4,64c6.3,5.3,13,10.1,20.1,14.3c17.7,10.7,33.4,17.3,46.6,40.6"/>
		<path class="st8" d="M1305.7,835.3L1305.7,835.3c0,0.6,1.9,28-16.4,35.7"/>
		<path class="st8" d="M1352.4,875.9L1352.4,875.9L1352.4,875.9c-0.4-1.2-8.3-25.2-27.9-64c-6-12-13.2-25.4-21.6-40
			c-36.3-63-34.5-96.2-31.5-126.9s8.9-162.6,8.9-162.6"/>
		<path class="st8" d="M1324.5,811.9c0,0,32.1,12.7,49.2,32.8l0.1,0.1"/>
		<path class="st8" d="M1429.3,903.5L1429.3,903.5c0.2,0.6,5.8,20.9,5.4,41.4c-0.4,20.8,27.5,61.8,28.9,77"/>
		<path class="st8" d="M1448.2,1082.7L1448.2,1082.7c1.5-0.9,3.9-47-19-82.5l0,0"/>
		<path class="st8" d="M1148.7,610.9c0,0,29.1,9.9,42-13.2"/>
	</g>
	<g id="stroke-dog">
		
			<linearGradient id="SVGID_1_" gradientUnits="userSpaceOnUse" x1="1705.6622" y1="892.6064" x2="1921.7556" y2="892.6064" gradientTransform="matrix(1 0 0 -1 0 1192)">
			<stop  offset="0" style="stop-color:#FF792D"/>
			<stop  offset="1" style="stop-color:#FBC715"/>
		</linearGradient>
		<path class="st9" d="M1706.2,312.3c0.4-0.1,0.8-0.2,1.3-0.3c15.6-3.6,173.8-39.4,212.9-19.6"/>
		
			<linearGradient id="SVGID_00000178169013896538260940000003917065867721940141_" gradientUnits="userSpaceOnUse" x1="1706.9238" y1="863.2014" x2="1830.1428" y2="863.2014" gradientTransform="matrix(1 0 0 -1 0 1192)">
			<stop  offset="0" style="stop-color:#FF792D"/>
			<stop  offset="1" style="stop-color:#FBC715"/>
		</linearGradient>
		
			<path style="fill:none;stroke:url(#SVGID_00000178169013896538260940000003917065867721940141_);stroke-width:6;stroke-miterlimit:10;" d="
			M1828.9,346.5c-9.2-4.3-89.5-40.6-121.4-34.5"/>
		
			<linearGradient id="SVGID_00000055676411489967486340000011457796192252302777_" gradientUnits="userSpaceOnUse" x1="251.5837" y1="320.8599" x2="498.153" y2="320.8599" gradientTransform="matrix(1 0 0 -1 0 1192)">
			<stop  offset="0" style="stop-color:#FF792D"/>
			<stop  offset="1" style="stop-color:#FBC715"/>
		</linearGradient>
		
			<path style="fill:none;stroke:url(#SVGID_00000055676411489967486340000011457796192252302777_);stroke-width:6;stroke-miterlimit:10;" d="
			M258.3,553.5c0,0.1,0,0.1-0.1,0.2c-0.8,3-11,45.9,6.4,83.7l7.8-16.5c0,0,37.6,88.5,71.3,123s108.1,84.6,108.1,84.6l25.9,132.4
			l10.8,102.1l6.4,60c-4.2,0.5-8.1,2.4-11.1,5.4c-3,2.9-5.9,7.3-7.6,14.1c0,0-48.6,16-54.1,47"/>
		
			<linearGradient id="SVGID_00000129913650260147294930000009534494176888117166_" gradientUnits="userSpaceOnUse" x1="0" y1="894.367" x2="1922.3811" y2="894.367" gradientTransform="matrix(1 0 0 -1 0 1192)">
			<stop  offset="0" style="stop-color:#FF792D"/>
			<stop  offset="1" style="stop-color:#FBC715"/>
		</linearGradient>
		
			<path style="fill:none;stroke:url(#SVGID_00000129913650260147294930000009534494176888117166_);stroke-width:6;stroke-miterlimit:10;" d="
			M1920.6,292.6c-0.1,0-0.2-0.1-0.2-0.1c-7.2-4.6-158.2-101.1-295.1-38.4c-140.2,64.2-264.2,134.2-264.2,134.2s-25.1-9.4-36-1.6
			c-7.9,5.8-15.5,12.1-22.7,18.8H1286l-14.1,5.5l-22.7,4.7l-16.4-7.1c0,0-61.1-9.4-123.8-17.3s-204.4-15.6-228.7-14
			s-36.8,4.7-54.8-1.6s-0.8-11.7-36.1-13.3s-28.2-4-28.2-4s-38.4-24.2-70.5-21.8s-38.3,3.9-38.3,3.9s-29-23.5-51.7-26.6
			s-41.5-7.1-41.5-7.1s-97.9-130-119.8-154.3s-29-42.3-29.7-44.7S368,23.3,321,10.7s-112.8,0-117.5,4S173,39,167.5,47.6
			s-21.1,25.8-21.1,25.8S46.1,104,41.4,103.2S3,104.7,3,121.2s19.6,70.5,37.6,90.9s28.2,30.5,64.2,41.5c36,11,95.5,7.9,107.3,22
			s0.8,44.6,0,49.3s17.3-3.9,17.3-3.9s-4.7,67.4-3.1,70.4s16.4-7.8,16.4-7.8l-10.9,102.6l20.3-15.4c0,0-15.6,91.4-11,113.3
			c0,0,12.4-24,17.2-30.4"/>
		
			<linearGradient id="SVGID_00000089569396003214669260000005531169715741934726_" gradientUnits="userSpaceOnUse" x1="992.3053" y1="447.4198" x2="1830.9191" y2="447.4198" gradientTransform="matrix(1 0 0 -1 0 1192)">
			<stop  offset="0" style="stop-color:#FF792D"/>
			<stop  offset="1" style="stop-color:#FBC715"/>
		</linearGradient>
		
			<path style="fill:none;stroke:url(#SVGID_00000089569396003214669260000005531169715741934726_);stroke-width:6;stroke-miterlimit:10;" d="
			M993.8,804.2c0.1,0,0.1,0,0.2-0.1c3.4-0.7,56.5-14.2,64.9-43.8l-15.7,51.7l27.4-21.1c0,0,49.4,74.4,119.8,96.3s159.8,51,159.8,51
			l28.4,41.4l38.2,55.7l-6.6,29.1l-9,39.8c0,0-54.1,8.7-50.9,45.4h108.9c0,0,18.8-29.7,38.3-36l-11.7-214.6c0,0-79.1-32.1-87-97.9
			s-12.6-115.9-12.6-115.9c7.7,3.6,13.6,10,16.5,18c4.7,13.3-12.6-112-47-149.6c0,0,31.3,4.7,47-9.4c0,0,50.9,97.1,106.5,102.6
			c0,0-14.1-19.6-13.4-37.6c0,0,60.4,28.2,99.5-20.3c0,0-40,2.3-45.4-24.3c0,0,58,7,81.4-35.3c0,0-39.1,4.7-40-28.2
			c0,0,105-7,107.4-49.3c0,0-51.7,21.9-67.4,0c0,0,111.1-17.8,132.2-70.2c0,0-40.3,20.5-63.8-17.1c0,0,75.1-40.5,129.1-17.9
			c0.2,0.1,0.2,0.1,0.4,0.1l0.5,0.2"/>
		
			<linearGradient id="SVGID_00000035520659129003109740000000120807592932905891_" gradientUnits="userSpaceOnUse" x1="992.1538" y1="409.7097" x2="1026.4938" y2="409.7097" gradientTransform="matrix(1 0 0 -1 0 1192)">
			<stop  offset="0" style="stop-color:#FF792D"/>
			<stop  offset="1" style="stop-color:#FBC715"/>
		</linearGradient>
		
			<path style="fill:none;stroke:url(#SVGID_00000035520659129003109740000000120807592932905891_);stroke-width:6;stroke-miterlimit:10;" d="
			M1024.4,760.3L1024.4,760.3c-1.3,2.3-22,37.4-30.4,43.8"/>
		
			<linearGradient id="SVGID_00000074401900535574002320000011225289811862799800_" gradientUnits="userSpaceOnUse" x1="604.2065" y1="344.0474" x2="1026.5946" y2="344.0474" gradientTransform="matrix(1 0 0 -1 0 1192)">
			<stop  offset="0" style="stop-color:#FF792D"/>
			<stop  offset="1" style="stop-color:#FBC715"/>
		</linearGradient>
		
			<path style="fill:none;stroke:url(#SVGID_00000074401900535574002320000011225289811862799800_);stroke-width:6;stroke-miterlimit:10;" d="
			M663.2,935.7c0-0.1,0-0.1-0.1-0.1c-1.3-2.9-22.7-50-51.6-75.8c0,0,184.1-11.7,273.4-63.4L870,819c0,0,129-27.3,154.3-58.6"/>
		
			<linearGradient id="SVGID_00000142887994144057077900000014140928501016154753_" gradientUnits="userSpaceOnUse" x1="615.9797" y1="217.7506" x2="674.0749" y2="217.7506" gradientTransform="matrix(1 0 0 -1 0 1192)">
			<stop  offset="0" style="stop-color:#FF792D"/>
			<stop  offset="1" style="stop-color:#FBC715"/>
		</linearGradient>
		
			<path style="fill:none;stroke:url(#SVGID_00000142887994144057077900000014140928501016154753_);stroke-width:6;stroke-miterlimit:10;" d="
			M671.1,1029c0-0.1,0-0.2-0.1-0.2c-1-4.9-17.3-84.3-45.3-106.3c0,0,29.5,2.3,37.5,13.2"/>
		
			<linearGradient id="SVGID_00000170975287315805403510000011876427011246720391_" gradientUnits="userSpaceOnUse" x1="426.73" y1="90.4024" x2="673.9162" y2="90.4024" gradientTransform="matrix(1 0 0 -1 0 1192)">
			<stop  offset="0" style="stop-color:#FF792D"/>
			<stop  offset="1" style="stop-color:#FBC715"/>
		</linearGradient>
		
			<path style="fill:none;stroke:url(#SVGID_00000170975287315805403510000011876427011246720391_);stroke-width:6;stroke-miterlimit:10;" d="
			M426.7,1189.5h123c0,0,47-57.2,47.8-88.5c0,0,24.3,4,25,15.7c0,0,11.8-25.1-7-45.4c0,0,32.1,0,36.8,19.6c0,0,8.6-52.4-5.5-76.7
			c0,0,20.2,1.6,24.2,14.6"/>
		
			<linearGradient id="SVGID_00000040575176273488718270000005382500509206273949_" gradientUnits="userSpaceOnUse" x1="422.8272" y1="96.0619" x2="486.7473" y2="96.0619" gradientTransform="matrix(1 0 0 -1 0 1192)">
			<stop  offset="0" style="stop-color:#FF792D"/>
			<stop  offset="1" style="stop-color:#FBC715"/>
		</linearGradient>
		
			<path style="fill:none;stroke:url(#SVGID_00000040575176273488718270000005382500509206273949_);stroke-width:6;stroke-miterlimit:10;" d="
			M484,1063.4c0,0-54.8,8.6-58,65h58"/>
		
			<linearGradient id="SVGID_00000181805245552919366040000016698230296234294672_" gradientUnits="userSpaceOnUse" x1="1314.9417" y1="168.585" x2="1410.1201" y2="168.585" gradientTransform="matrix(1 0 0 -1 0 1192)">
			<stop  offset="0" style="stop-color:#FF792D"/>
			<stop  offset="1" style="stop-color:#FBC715"/>
		</linearGradient>
		
			<path style="fill:none;stroke:url(#SVGID_00000181805245552919366040000016698230296234294672_);stroke-width:6;stroke-miterlimit:10;" d="
			M1378.6,979.5v25.6c0,0-57.9,15.2-60.4,59.2h92"/>
	</g>
	<g id="shapes" class="st20">
		<circle class="st21" cx="150" cy="949.7" r="141.6"/>
		<circle class="st21" cx="961.8" cy="89.3" r="30.7"/>
		<circle class="st21" cx="1101.3" cy="909.3" r="21.8"/>
		<circle class="st21" cx="1640.4" cy="657.2" r="55.6"/>
		
			<ellipse transform="matrix(0.9951 -9.853763e-02 9.853763e-02 0.9951 -57.6246 14.81)" class="st21" cx="121.1" cy="590.8" rx="33.9" ry="33.9"/>
		<circle class="st21" cx="1369.8" cy="82.1" r="82.1"/>
	</g>
	<g id="oreja">
		
			<linearGradient id="SVGID_00000180363502446656282570000010538579054859179673_" gradientUnits="userSpaceOnUse" x1="240.0263" y1="973.1212" x2="415.2213" y2="973.1212" gradientTransform="matrix(1 0 0 -1 0 1192)">
			<stop  offset="0" style="stop-color:#FF2426"/>
			<stop  offset="1" style="stop-color:#FBEC86"/>
		</linearGradient>
		
			<path style="opacity:0.6;fill:#00426B;stroke:url(#SVGID_00000180363502446656282570000010538579054859179673_);stroke-width:6;stroke-linecap:round;stroke-linejoin:round;enable-background:new    ;" d="
			M398.6,147.8c0,0-8.7,6.3,5.4,39.2s6.3,57.1,4,58s-13.4-14.1-13.4-14.1s0.8,26.7-11.7,44.7s-37.6,13.2-54.9,19.5
			s-40,35.3-61.1,26.6s-26.6-29.7-22.7-49.3s25.1-50.1,42.4-80.7s11.7-63.4,11.7-63.4s9.4-17.4,36.4-13.1S403.6,134.2,398.6,147.8z"
			/>
	</g>
</g>
</svg>
