<?xml version="1.0" encoding="utf-8"?>
<!-- Generator: Adobe Illustrator 26.0.1, SVG Export Plug-In . SVG Version: 6.00 Build 0)  -->
<svg version="1.1" id="Capa_1" xmlns="http://www.w3.org/2000/svg" xmlns:xlink="http://www.w3.org/1999/xlink" x="0px" y="0px"
	 viewBox="0 0 1809 1116.7" style="enable-background:new 0 0 1809 1116.7;" xml:space="preserve">
<style type="text/css">
	.st0{fill:#03344C;}
	.st1{fill:#0C436B;}
	.st2{fill:#D33222;}
	.st3{fill:#F4463D;}
	.st4{fill:#FF6F6C;}
	.st5{fill:#E85642;}
	.st6{fill:#F7A99C;}
	.st7{fill:#EA7768;}
	.st8{fill:#BC4A3B;}
	.st9{fill:none;stroke:#7F2516;stroke-width:5;stroke-linecap:round;stroke-miterlimit:10;}
	.st10{fill:none;stroke:url(#SVGID_1_);stroke-width:5;stroke-linecap:round;stroke-linejoin:round;}
	
		.st11{fill:none;stroke:url(#SVGID_00000152943402643059777420000006687509296628937090_);stroke-width:5;stroke-linecap:round;stroke-linejoin:round;}
	
		.st12{fill:none;stroke:url(#SVGID_00000167354406100906186760000010467963454300738229_);stroke-width:5;stroke-linecap:round;stroke-linejoin:round;}
	
		.st13{opacity:0.3;fill:#03344C;stroke:url(#SVGID_00000012454925143483078860000010723562760998643385_);stroke-width:5;stroke-linecap:round;stroke-linejoin:round;enable-background:new    ;}
</style>
<g id="Capa_2_00000008145159046873400650000008714067100692147364_">
	<g id="fill_dog">
		<path class="st0" d="M666,755.1l68.9,302.4c0,0-60.9-18.1-59.5,56.6h163.3l-49.8-411.4L666,755.1z"/>
		<path class="st0" d="M1310.5,819.2l-64.9,295h-146.7c4.2-55.3,66.5-70.6,66.5-70.6V730.5L1310.5,819.2z"/>
		<path class="st1" d="M170.5,322.4c-5.5,11.1-31.8,102.4,87.2,130.1s141.1,2.8,189.6,47s58.1,131.5,70.6,258.7
			s12.5,307.6,12.5,307.6s-72-30.5-59.5,40h131.4l108-350.8c0,0,375.4,66.4,459.8,23.5c0,0,61.7,71,195.9,120.8l41.5,169.2
			c0,0-56.7-0.1-38.7,45.6h132.8l-20.8-301.9c0,0-114.8-226.9-110.7-321c0-1.1,48.8-14.4,52-15.6c39.4-14.5,77.2-33.9,111-58.9
			c104.7-77.4,135.4-191.9,114.2-316.7c-2.9-17.1-6.4-34.2-13.6-50.1c-9.4-20.6-25.8-39-47.5-45.4s-48.4,2.3-57.9,22.8
			c-6.2,13.5-4.4,29.4,0.4,43.5s12.4,27,17.7,40.9c17.7,46,9.1,99.7-16.7,141.6s-67.2,72.8-112.6,92.1
			c-70.5,30-148.6,35.4-224.1,37.5c-83.4,2.4-166.7,2-250.1-1.2c-89.5-3.4-183.4-11.5-258-61.1c-47.4-31.5-83.9-77.9-133.1-106.5
			c-38.5-22.4-84-31.5-128.3-28c-22.2,1.7-45.7,6.1-66.2,15.1c-21.4,9.3-28.5,29.4-37.5,49.8c-17.2,38.7-38.5,41.6-75.5,49.2
			C230,303.3,178.1,307.4,170.5,322.4z"/>
	</g>
	<g id="musculo">
		
			<image style="overflow:visible;enable-background:new    ;" width="111" height="190" xlink:href="B8ED7BAB62406FFB.png"  transform="matrix(1 0 0 1 583 795.07)">
		</image>
		
			<image style="overflow:visible;enable-background:new    ;" width="144" height="351" xlink:href="B8ED7BAB62406FF9.png"  transform="matrix(1 0 0 1 1336 738.07)">
		</image>
		
			<image style="overflow:visible;enable-background:new    ;" width="128" height="324" xlink:href="B8ED7BAB62406FFF.png"  transform="matrix(1 0 0 1 1372 763.07)">
		</image>
		
			<image style="overflow:visible;enable-background:new    ;" width="250" height="201" xlink:href="B8ED7BAB62406FF8.png"  transform="matrix(1 0 0 1 188 265.07)">
		</image>
		
			<image style="overflow:visible;enable-background:new    ;" width="140" height="152" xlink:href="B8ED7BAB62406FF6.png"  transform="matrix(1 0 0 1 732 619.07)">
		</image>
		
			<image style="overflow:visible;enable-background:new    ;" width="115" height="317" xlink:href="B8ED7BAB62406FF7.png"  transform="matrix(1 0 0 1 508 732.07)">
		</image>
		
			<image style="overflow:visible;enable-background:new    ;" width="135" height="289" xlink:href="B8ED7BAB62407007.png"  transform="matrix(1 0 0 1 538 760.07)">
		</image>
		
			<image style="overflow:visible;enable-background:new    ;" width="219" height="403" xlink:href="B8ED7BAB62407009.png"  transform="matrix(1 0 0 1 1199 499.07)">
		</image>
		
			<image style="overflow:visible;enable-background:new    ;" width="227" height="313" xlink:href="B8ED7BAB6240700B.png"  transform="matrix(1 0 0 1 1166 367.07)">
		</image>
		
			<image style="overflow:visible;enable-background:new    ;" width="366" height="478" xlink:href="BA52DFC533502F58.png"  transform="matrix(1 0 0 1 1293 11.07)">
		</image>
		
			<image style="overflow:visible;enable-background:new    ;" width="256" height="251" xlink:href="BA52DFC533502F5F.png"  transform="matrix(1 0 0 1 150 205.07)">
		</image>
		
			<image style="overflow:visible;enable-background:new    ;" width="204" height="316" xlink:href="BA52DFC533502F59.png"  transform="matrix(1 0 0 1 1285 535.07)">
		</image>
		
			<image style="overflow:visible;enable-background:new    ;" width="152" height="428" xlink:href="BA52DFC533502F5B.png"  transform="matrix(1 0 0 1 1143 418.07)">
		</image>
		
			<image style="overflow:visible;enable-background:new    ;" width="301" height="189" xlink:href="BA52DFC533502F46.png"  transform="matrix(1 0 0 1 656 615.07)">
		</image>
		
			<image style="overflow:visible;enable-background:new    ;" width="135" height="346" xlink:href="BA52DFC533502F47.png"  transform="matrix(1 0 0 1 601 527.07)">
		</image>
		
			<image style="overflow:visible;enable-background:new    ;" width="170" height="193" xlink:href="BA52DFC533502F48.png"  transform="matrix(1 0 0 1 320 172.07)">
		</image>
		
			<image style="overflow:visible;enable-background:new    ;" width="150" height="416" xlink:href="BA52DFC533502F4B.png"  transform="matrix(1 0 0 1 475 212.07)">
		</image>
		
			<image style="overflow:visible;enable-background:new    ;" width="141" height="342" xlink:href="BA52DFC533502F49.png"  transform="matrix(1 0 0 1 464 188.07)">
		</image>
		
			<image style="overflow:visible;enable-background:new    ;" width="257" height="233" xlink:href="BA52DFC533502F4F.png"  transform="matrix(1 0 0 1 257 290.07)">
		</image>
		
			<image style="overflow:visible;enable-background:new    ;" width="154" height="205" xlink:href="BA52DFC533502F63.png"  transform="matrix(1 0 0 1 579 464.07)">
		</image>
		
			<image style="overflow:visible;enable-background:new    ;" width="219" height="308" xlink:href="BA52DFC533502F6D.png"  transform="matrix(1 0 0 1 554 290.07)">
		</image>
		
			<image style="overflow:visible;enable-background:new    ;" width="146" height="383" xlink:href="BA52DFC533502F6F.png"  transform="matrix(1 0 0 1 545 490.07)">
		</image>
		
			<image style="overflow:visible;enable-background:new    ;" width="153" height="190" xlink:href="BA52DFC533502F62.png"  transform="matrix(1 0 0 1 1089 446.07)">
		</image>
		
			<image style="overflow:visible;enable-background:new    ;" width="566" height="353" xlink:href="BA52DFC533502F61.png"  transform="matrix(1 0 0 1 647 371.07)">
		</image>
		
			<image style="overflow:visible;enable-background:new    ;" width="326" height="306" xlink:href="BA52DFC533502F65.png"  transform="matrix(1 0 0 1 947 526.07)">
		</image>
		
			<image style="overflow:visible;enable-background:new    ;" width="341" height="179" xlink:href="BA52DFC533502F67.png"  transform="matrix(1 0 0 1 950 367.07)">
		</image>
		
			<image style="overflow:visible;enable-background:new    ;" width="180" height="418" xlink:href="BA52DFC533502F60.png"  transform="matrix(1 0 0 1 375 174.07)">
		</image>
		
			<image style="overflow:visible;enable-background:new    ;" width="200" height="606" xlink:href="BA52DFC533502F5E.png"  transform="matrix(1 0 0 1 483 236.07)">
		</image>
		
			<image style="overflow:visible;enable-background:new    ;" width="440" height="281" xlink:href="BA52DFC533502F9D.png"  transform="matrix(1 0 0 1 781 526.07)">
		</image>
		
			<image style="overflow:visible;enable-background:new    ;" width="360" height="201" xlink:href="BA52DFC533502F82.png"  transform="matrix(1 0 0 1 638 341.07)">
		</image>
		
			<image style="overflow:visible;enable-background:new    ;" width="440" height="210" xlink:href="BA52DFC533502FBD.png"  transform="matrix(1 0 0 1 700 491.07)">
		</image>
		
			<image style="overflow:visible;enable-background:new    ;" width="427" height="210" xlink:href="BA52DFC533502FBE.png"  transform="matrix(1 0 0 1 663 465.07)">
		</image>
		
			<image style="overflow:visible;enable-background:new    ;" width="361" height="165" xlink:href="BA52DFC533502FBC.png"  transform="matrix(1 0 0 1 665 452.07)">
		</image>
		
			<image style="overflow:visible;enable-background:new    ;" width="252" height="125" xlink:href="BA52DFC533502F83.png"  transform="matrix(1 0 0 1 786 419.07)">
		</image>
		<path class="st2" d="M638.2,831.7c3.1,5.2,9.9,6.9,15.1,3.7c1.7-1,3-2.4,4-4.1h0.1c-2.1,20.2-21.3,73.8-38,117.4
			c5.1-35.5,10.3-70.9,15.3-106.3c0.4-2.9,1.1-5.7,1.9-8.5c0.2-0.8,0.5-1.6,0.7-2.4L638.2,831.7z"/>
		<path class="st2" d="M1443.3,1047.7l0.3,3l-17.9,1.6l-49.1-187c7.5-23.1,6.2-43.3,1.6-67.2c-1.5-7.8-3.4-15.6-5.7-23.3l1-0.3
			c10,10.2,21.7,18.7,34.5,25.2l0,0c9,23.8,9.6,47.2,12.8,72.4C1428.4,930.7,1435.9,989.2,1443.3,1047.7z"/>
		<path class="st3" d="M1452.3,815.1l11.1,233.8l-19.8,1.7l-0.3-3c-7.5-58.5-15-117.1-22.4-175.6c-3.2-25.3-3.8-48.6-12.8-72.4l0,0
			c7.2,3.6,14.7,6.6,22.4,8.9C1438.9,811,1446.4,808.5,1452.3,815.1L1452.3,815.1z"/>
		<path class="st4" d="M369.3,301.2c8.1,11.5,19.5,20.2,32.6,25.1c0,0-29.3,48.6-60.3,61.7s-47.9,23-48.1,41.9
			c-5.1-0.6-10.3-1.1-15.6-1.2c-12.9-0.3-26-0.3-38.5-3.4c-5-1.2-9.8-3.1-14.3-5.7c-4.8-30.5,7.4-35.6,37.1-45.9
			S369.3,301.2,369.3,301.2z"/>
		<path class="st4" d="M835.5,655.8l0.5,1c-22.6,19.5-25.2,53.7-5.7,76.3c0.4,0.5,0.8,0.9,1.2,1.3c-6.8-2.6-13.3-5.7-19.5-9.5
			c-13.9-8.7-24.7-21.3-36.9-32.2c-2-1.8-4.1-3.6-6.1-5.3l2.5-0.1C792.4,676.2,813.8,665.7,835.5,655.8z"/>
		<path class="st4" d="M585,797.5c3.1,44.8,2.1,89.8-2.9,134.5c-3,26.7-7.4,53.4-7.8,80.2v0.1h-20.2c0,0-2-113-2.1-114.5
			c-0.8-42.8-3.4-86.1-7.5-129.3l0,0c0,0,7.8,61.8,40.9,26.2c0,0,0.3,0.8,0.9,2.3L585,797.5z"/>
		<path class="st4" d="M636.6,833.8c-0.8,2.8-1.4,5.6-1.9,8.5c-5,35.5-10.2,70.9-15.3,106.3c-13.4,35-25.1,63.7-25.1,63.7h-19.9
			v-0.1c0.4-26.9,4.8-53.5,7.8-80.2c5-44.6,6-89.6,2.9-134.4l1.4-0.5C590.8,807.3,609.9,848.7,636.6,833.8z"/>
		<path class="st3" d="M1378.2,798c4.6,23.9,5.9,44-1.6,67.2c-41.3-9.2-84.1-32.2-119.1-55.1l0.6-0.8c-11.6-22.2-15.5-47.6-16-72.6
			s2.4-50,3.4-75c1.7-42.4-1.8-84.9-10.3-126.5c12,20.2,24.9,39.7,38.9,58.5c14.3,19.4,29.4,34.1,47.8,49.7
			c11,29.3,23.9,55.8,34.9,85.1c5.7,15.3,11.4,30.7,16,46.3C1374.8,782.4,1376.7,790.2,1378.2,798z"/>
		<path class="st4" d="M1347.9,484.9c7.3,24.6,8.6,86.8,8.6,86.8c-7.5,27.1-21,47.4-34.8,71.6c-18.3-15.6-33.4-30.3-47.8-49.7
			c-13.9-18.8-26.9-38.3-38.8-58.5c-3.8-18.6-8.7-36.9-14.5-55c-2.1-6.3-4.3-12.8-8.5-17.9c-2.4-3-5.6-5.3-9.2-6.7l0.2-0.6
			c3.3-25,26.8-45.6,51.3-51.3c15.9,0,31.8,0.3,47.7,1.3c12.3,0.8,18.9,2.8,26.9,11.4c0.8,0.9,1.7,1.9,2.6,2.9
			c8.2,9.6,13.7,21.3,16,33.7C1349.4,463.1,1349.3,473.7,1347.9,484.9z"/>
		<path class="st2" d="M1598.1,63.1c41,83.1,28.4,187.4-22.9,264.6S1438.4,434.4,1347.6,453c-2.2-12.5-7.7-24.1-15.9-33.7
			c-0.9-1-1.7-2-2.6-2.9l1.2-0.5c54.6-2.5,109-18.5,154.6-48.5s82.2-74.7,99.7-126.5s15.2-110.6-9.1-159.6c-2.8-5.7-6-11.5-6.5-17.9
			s2.8-13.6,9-15.3C1586.8,45.8,1594.1,55,1598.1,63.1z"/>
		<path class="st2" d="M357.1,241.2c-1.8,16.4,2.7,46.4,12.2,60c0,0-77.4,62.3-107.1,72.6c-29.7,10.3-41.9,15.4-37.1,45.9
			c-22.4-12.8-34.4-40.3-38.1-65.5c-0.8-5.6-0.9-12.2,3.3-15.9c2.4-2.1,5.6-2.8,8.6-3.5l67.4-14.5c18.1-3.9,35-11.2,48.7-23.7
			c15.8-14.4,27.3-34.9,39.9-52.2L357.1,241.2z"/>
		<path class="st2" d="M1452.3,815.1c-5.9-6.5-13.4-4-21.8-6.5c-7.7-2.3-15.2-5.3-22.4-8.9c-12.8-6.5-24.4-15-34.5-25.2l-1,0.3
			c-4.5-15.7-10.3-31-16-46.3c-10.9-29.3-23.9-55.8-34.9-85.1c13.8-24.2,27.3-44.5,34.8-71.6
			C1367.1,595.9,1451.6,813.4,1452.3,815.1z"/>
		<path class="st2" d="M1235.1,535.1c8.6,41.6,12.1,84.1,10.3,126.5c-1,25-3.8,50-3.4,75s4.4,50.5,16,72.6l-0.6,0.8
			c-7.6-5-14.9-10-21.7-14.8l0.3-0.5c-18-37.6-27.4-78.7-27.3-120.3c0-20.5,2.3-41.2-0.8-61.5c-0.7-4.5-1.7-8.9-3-13.2l0.4-0.1
			L1182.2,494c-0.8-3.7-1.7-7.5-2.1-11.3l0,0c-0.5-3.9-0.5-7.8,0.2-11.7c1.4-7.6,6.8-15,14.5-16.3c2.8-0.4,5.6-0.1,8.3,0.9
			c3.6,1.4,6.7,3.7,9.2,6.7c4.2,5.1,6.5,11.6,8.5,17.9C1226.5,498.2,1231.3,516.6,1235.1,535.1z"/>
		<path class="st2" d="M831.4,734.5c3.8,1.5,7.6,2.9,11.4,4.3l77.7,28.3l-0.1,0.7c-53.5-6.3-227.7-38.6-227.7-38.6
			c6.3-27.3,7.8-53.9,6.9-77.6l2-0.1c25.3,6.8,47.3,19.4,67.3,36c2.1,1.7,4.1,3.5,6.1,5.3c12.2,10.9,23.1,23.5,36.9,32.2
			C818.2,728.7,824.7,731.9,831.4,734.5z"/>
		<path class="st2" d="M699.7,651.5c0.9,23.7-0.6,50.3-6.9,77.6c-1.3,30-35.4,101.8-35.4,101.8s0,0.2,0,0.3h-0.1
			c-2.9,5.3-9.6,7.3-14.9,4.4c-1.7-0.9-3.1-2.3-4.1-4l-0.9-0.3c1.9-6.2,4.3-12.3,5.9-18.6c2.6-11.2,4.6-22.5,6-33.8
			c5.8-45,7.5-92.7,1.4-137.8c-0.4-3-1-6-1.7-8.9c16.7-19.4,27.7-45.4,34.9-69.1l0.7,0.2C684.5,563.4,697.7,600.6,699.7,651.5z"/>
		<path class="st2" d="M453.5,210.3l-0.2,1.4c-23.4,23.2-36.9,55.3-40.5,88.1c-1,9.5-1.3,19.1-0.9,28.6l-2.8,0.1
			c-2.5-0.6-4.9-1.4-7.3-2.2c-13.2-4.9-24.5-13.7-32.6-25.1c-9.4-13.5-14-43.6-12.2-60c5.3-7.3,10.9-14.4,18-19.9
			c9.1-7,18.2-7,28.8-9.5c11.6-2.7,23.8-3.1,35.7-2.6C444.2,209.4,448.9,209.8,453.5,210.3z"/>
		<path class="st2" d="M548.7,453.1c-15.6,41.8-25.1,94.1-28.7,138.6l0,0c-0.5-2.6-0.9-5.2-1.4-7.8c-1.7-9.3-3.5-18.7-5.8-27.9
			c-3.1-16.2-0.1-38.2,5.9-62.3c13.5-54.3,41.9-119.5,47.8-154c8.4-49.7-15.2-90.9-15.2-90.9c8.6,6.6,16.7,13.9,25,20.9l3.8,3.3l0,0
			c10.6,29.4,10.5,62.2,1.9,92.4C573.4,395.4,559.6,423.8,548.7,453.1z"/>
		<path class="st5" d="M551.2,248.8c0,0,23.6,41.3,15.2,90.9c-5.8,34.4-34.2,99.6-47.8,154l-1.2-0.3
			c-17.2-53.8-21.7-110.8-13.2-166.6c2.7-17.4,6.6-34.6,7.9-52.1c1.3-17.5,0.8-33.6-6.8-49.4l0.3-0.9c12,4.7,23.9,9.6,34.7,16.7
			C544.2,243.5,547.7,246.1,551.2,248.8z"/>
		<path class="st5" d="M426.4,396.9c11.3,30.9,32.3,62,50.8,89.3c-24.1-24-58.2-37.5-92.1-44.2c-18.6-3.7-37.6-5.6-56.5-7.4
			c-11.8-1.1-23.4-3.3-35.1-4.7c0.2-18.9,17.1-28.7,48.1-41.9s60.3-61.7,60.3-61.7c2.4,0.9,4.8,1.6,7.3,2.2l2.8-0.1
			C413.1,351.8,418.4,374.9,426.4,396.9z"/>
		<path class="st5" d="M696.5,500.2c-2.3,21.4-6.5,42.4-12.7,63c-7.2,23.8-18.2,49.7-34.9,69.1c-5.6-22.2-20.4-49.1-33.8-70.3
			l2.7-0.2c0,0,33.8-19.3,56.3-56.5C674.2,505.4,682.6,503.5,696.5,500.2z"/>
		<path class="st5" d="M736.7,378c0,0-31.1,47.2-50.1,101.3c-3.2,9.1-7.4,17.8-12.4,26c-22.5,37.1-56.3,56.5-56.3,56.5l-2.7,0.2
			c-12.8-20.2-24.1-35.2-24.5-35.7c11.5-58.8,30.9-101.7,42.8-137.4c13.9-41.7,12.7-62.6,12.7-62.6C670.6,343.2,704.2,364,736.7,378
			z"/>
		<path class="st5" d="M648.9,632.3c0.7,2.9,1.3,5.9,1.7,8.9c6,45.1,4.4,92.8-1.4,137.8c-1.4,11.4-3.4,22.7-6,33.8
			c-1.5,6.3-3.9,12.4-5.9,18.6c-0.2,0.8-0.5,1.6-0.7,2.4c-26.7,14.9-45.8-26.5-50.1-36.8c-0.6-1.4-0.9-2.3-0.9-2.3v-2.3
			c0.1-21.3-9.9-159.6,0-234.9c1.4-10.9,3.1-21.3,5.1-31.2c0.4,0.5,11.7,15.5,24.5,35.7C628.5,583.2,643.3,610.1,648.9,632.3z"/>
		<path class="st5" d="M1177.1,562.1L1177.1,562.1h-0.6c-15.9-19.6-33-38.1-51.3-55.5l0.5-0.5c10.9,4.9,23.4,4.6,34.2-0.6
			c10.6-5.2,17.4-11.5,20.1-22.9c0.4,3.8,1.3,7.5,2.1,11.3l23.3,105.6l-0.4,0.1C1200.2,584.1,1191.2,569.8,1177.1,562.1z"/>
		<path class="st5" d="M768.9,687.5c-20-16.6-42-29.2-67.3-36l-2,0.1c-2-50.9-15.1-88.1-15.1-88.1l-0.7-0.2
			c6.2-20.6,10.5-41.6,12.7-63l0,0c63-14.8,239.3-58.9,264.6-92.9c9.2,0.5,17.7,0.9,25.3,1.2c50.3,25,97.6,58.8,138.8,98.1
			c18.3,17.4,35.4,35.9,51.3,55.5c-117.9,13.1-233,44.7-341.1,93.7c-21.7,9.8-43.1,20.4-64.1,31.6L768.9,687.5z"/>
		<path class="st6" d="M1183.2,644.6c4.2-26.2-3.7-56.1-6-82.5l0,0c14,7.7,23.1,22,27.9,37.5c1.3,4.3,2.3,8.8,3,13.2
			c3.2,20.3,0.8,41,0.8,61.5c0,41.7,9.3,82.8,27.3,120.3l-0.3,0.5c-18.8-13.4-36.9-27.7-54.3-43l-26.6,9.8
			c-30.5,8.5-112.1,10-171.7,8.8l0,0c60.4-9.7,70.2-10.7,98.1-16.7s47.3-19.3,67.9-39.2C1168.5,696.7,1179,670.8,1183.2,644.6z"/>
		<path class="st7" d="M1238.7,403.7c5.3,0,10.5,0,15.8,0c-24.6,5.7-48.1,26.3-51.3,51.3l-0.2,0.6c-2.6-1-5.5-1.4-8.3-0.9
			c-7.6,1.3-13,8.7-14.5,16.3c-0.7,3.9-0.7,7.8-0.2,11.7l0,0c-2.7,11.5-9.6,17.7-20.1,22.9c-10.7,5.2-23.2,5.4-34.2,0.6l-0.5,0.5
			c-41.3-39.3-88.5-73-138.8-98.1c18.5,0.8,31.7,1.3,35.5,1.3C1094.1,410.5,1166.5,403.9,1238.7,403.7z"/>
		<path class="st3" d="M517.5,493.4l1.2,0.3c-6,24.1-9.1,46.1-5.9,62.3c-4.7-19.2-11.2-37.9-22.4-54c-3.9-5.6-8.3-10.9-13.2-15.8
			c-18.5-27.3-39.5-58.4-50.8-89.3c-8-22-13.3-45.1-14.4-68.4c-0.5-9.5-0.2-19.1,0.9-28.6c3.6-32.8,17.1-64.9,40.5-88.1l0.2-1.4
			c15.5,1.8,30.8,5.6,45.4,11.3l6.8,2.7l-0.3,0.9c7.6,15.8,8.1,31.9,6.8,49.4c-1.3,17.5-5.2,34.8-7.9,52.1
			C495.8,382.6,500.3,439.6,517.5,493.4z"/>
		<path class="st3" d="M590.7,526.3c-2,9.9-3.7,20.3-5.1,31.2c-9.9,75.3,0.1,213.6,0,234.9v2.3c-33.1,35.6-40.9-26.2-40.9-26.2l0,0
			c-5.7-59.4-14.2-118.7-24.7-176.8l0,0c3.7-44.5,13.1-96.8,28.7-138.6c10.9-29.3,24.7-57.6,33.3-87.7c8.6-30.1,8.8-62.9-1.9-92.4
			c17.5,15.1,34.7,30.8,53.4,44.3c3.9,2.8,8.1,5.8,12.7,9c0,0,1.2,20.9-12.7,62.6C621.6,424.6,602.2,467.5,590.7,526.3z"/>
		<path class="st3" d="M1177.1,562.1c2.3,26.4,10.2,56.3,6,82.5s-14.7,52.1-33.8,70.5c-20.6,19.9-39.9,33.2-67.9,39.2
			s-37.7,7-98.1,16.7l0,0c-23.6-0.5-43.8-1.4-55.8-2.5c-2-0.2-4.4-0.4-7.1-0.8l0.1-0.7l-77.7-28.3c-3.8-1.4-7.6-2.8-11.4-4.3
			c-20.2-22-18.8-56.2,3.1-76.4c0.4-0.4,0.9-0.8,1.3-1.2l-0.5-1c108.1-49,223.2-80.6,341.1-93.7L1177.1,562.1z"/>
		<path class="st3" d="M767.7,389.1c31.2,8.5,128.4,14.9,193.5,18.2c-25.3,34-201.6,78-264.6,92.9l0,0c-14,3.3-22.4,5.1-22.4,5.1
			c5-8.2,9.2-16.9,12.4-26c19.1-54.1,50.1-101.4,50.1-101.4C746.8,382.4,757.1,386.2,767.7,389.1z"/>
		<path class="st8" d="M736.6,664.4c28.7-15.8,57.9-30.5,87.6-44.2s59.9-26.4,90.5-38l23-8.6l23.2-8.2l23.3-7.7l23.5-7.1l23.7-6.5
			c7.9-2,15.9-4,23.8-6c8-2,16-3.6,24-5.4c8-1.6,16.1-3.2,24.1-4.7c0.1,0,0.3,0.1,0.3,0.2c0,0.1-0.1,0.3-0.2,0.3
			c-7.9,2.2-15.8,4.3-23.7,6.4l-23.6,6.6l-23.5,6.8l-23.4,7.1l-23.4,7.3l-23.3,7.5l-23.2,7.7l-23.1,8.1
			c-30.7,11.2-61,23.3-90.9,36.5c-29.9,13.2-59.4,27.3-88.4,42.4c-0.1,0.1-0.3,0-0.3-0.1C736.5,664.6,736.5,664.5,736.6,664.4z"/>
		<path class="st8" d="M699.8,637.9c27.7-15.3,56-29.7,84.6-43.2c28.7-13.5,57.8-26,87.3-37.6l22.2-8.6l22.3-8.3l22.5-7.8l22.7-7.2
			l22.8-6.7c7.7-2.1,15.3-4.2,23-6.2s15.4-3.8,23.1-5.6c7.8-1.7,15.5-3.4,23.2-5c0.1,0,0.3,0.1,0.3,0.2c0,0.1-0.1,0.3-0.2,0.3
			c-7.6,2.3-15.2,4.5-22.8,6.7c-7.6,2.2-15.2,4.6-22.7,6.8s-15.1,4.7-22.7,7L963,530l-22.5,7.4l-22.6,7.6l-22.4,7.7l-22.3,8.1
			C843.6,572,814.4,584,785.5,597c-28.9,13-57.4,26.7-85.5,41.3c-0.1,0.1-0.3,0-0.3-0.1C699.6,638.1,699.7,637.9,699.8,637.9
			C699.8,637.9,699.8,637.9,699.8,637.9z"/>
		<path class="st8" d="M701.9,580c23.3-9.6,46.7-18.8,70.3-27.5c23.6-8.8,47.4-17,71.4-24.8l18-5.8l18-5.7l18.1-5.4
			c6.1-1.7,12.1-3.4,18.2-5l18.3-4.7c6.1-1.5,12.2-3,18.4-4.4s12.3-2.7,18.5-4s12.3-2.5,18.5-3.6c0.1,0,0.3,0.1,0.3,0.2c0,0,0,0,0,0
			c0,0.1,0,0.2-0.2,0.3c-6,1.9-12.1,3.6-18.1,5.3s-12.1,3.5-18.1,5.2l-36.2,10.5c-6,1.8-12,3.5-18.1,5.2l-18.1,5.1l-18.1,5.2
			l-18.1,5.4c-24,7.3-47.9,15.1-71.7,23.3c-23.8,8.2-47.4,16.8-71,25.7c-0.1,0-0.3,0-0.3-0.1C701.7,580.2,701.8,580.1,701.9,580
			L701.9,580z"/>
		<path class="st8" d="M822.2,507.3c14.4-5.9,29-11.4,43.6-16.6s29.5-10.1,44.3-14.7l11.2-3.4l11.2-3.4c3.7-1.1,7.5-2.1,11.3-3.1
			s7.6-1.9,11.3-2.8l11.4-2.5c3.8-0.7,7.6-1.5,11.5-2.2s7.7-1.3,11.5-1.9s7.7-1.1,11.6-1.5c0.1,0,0.3,0.1,0.3,0.2s-0.1,0.3-0.2,0.3
			c-3.7,1.2-7.5,2.2-11.2,3.3s-7.5,2.1-11.2,3.1c-7.5,2.1-15,4.1-22.5,6.1c-3.7,1-7.5,2-11.2,3s-7.5,1.9-11.3,2.9l-11.3,2.8l-11.2,3
			c-15,4.1-29.8,8.5-44.7,13.2c-14.8,4.6-29.5,9.6-44.2,14.7c-0.1,0-0.3,0-0.3-0.1C822,507.5,822.1,507.3,822.2,507.3z"/>
		<path class="st9" d="M580.1,273l-3.8-3.3c-8.2-7-16.4-14.3-25-20.9c-3.5-2.7-7.1-5.3-10.8-7.8c-10.8-7.1-22.8-12-34.7-16.7
			l-6.8-2.7c-14.6-5.7-29.8-9.5-45.4-11.3c-4.6-0.6-9.3-0.9-13.9-1.1c-11.9-0.5-24.1-0.1-35.7,2.6c-10.6,2.5-19.6,2.6-28.8,9.5
			c-7.1,5.5-12.7,12.6-18,19.9l-2.2,3c-12.5,17.3-24.1,37.9-39.9,52.3c-13.8,12.5-30.6,19.8-48.7,23.7L199,334.7
			c-3.1,0.7-6.3,1.4-8.6,3.5c-4.2,3.8-4.2,10.3-3.3,15.9c3.8,25.2,15.8,52.7,38.1,65.5c4.5,2.6,9.3,4.5,14.3,5.7
			c12.5,3.1,25.6,3,38.5,3.4c5.2,0.1,10.4,0.6,15.6,1.2c11.7,1.4,23.3,3.6,35.1,4.7c18.9,1.7,37.9,3.7,56.5,7.4
			c33.9,6.7,68,20.2,92.1,44.2c4.9,4.9,9.3,10.1,13.2,15.8c11.2,16.2,17.7,34.8,22.3,54c2.2,9.2,4.1,18.6,5.8,27.9
			c0.5,2.6,1,5.2,1.4,7.8c10.5,58.1,19.1,117.4,24.7,176.8c4.1,43.2,6.8,86.5,7.5,129.3c0,1.5,2.1,114.5,2.1,114.5h40
			c0,0,11.8-28.7,25.1-63.7c16.7-43.7,35.9-97.2,38-117.4c0-0.1,0-0.2,0-0.3s34.1-71.8,35.4-101.8c0,0,174.2,32.3,227.7,38.6
			c2.7,0.3,5.1,0.6,7.1,0.8c12.1,1.1,32.2,2,55.8,2.5c59.5,1.2,141.2-0.3,171.7-8.8l26.6-9.8c17.3,15.3,35.4,29.6,54.3,43
			c6.8,4.8,14,9.8,21.7,14.8c35,22.9,77.8,46,119.1,55.1l49.1,187l17.9-1.6l19.8-1.7l-11.1-233.8"/>
		<path class="st9" d="M1452.3,815.1c-0.7-1.7-85.2-219.1-95.8-243.3c0,0-1.3-62.2-8.6-86.8c1.4-11.3,1.6-21.9-0.2-31.9
			c-2.2-12.5-7.7-24.1-15.9-33.7c-0.9-1-1.7-2-2.6-2.9c-8-8.6-14.7-10.6-26.9-11.4c-15.9-1-31.8-1.3-47.7-1.3c-5.3,0-10.6,0-15.8,0
			c-72.2,0.3-144.6,6.8-216.7,6.2c-3.8,0-17-0.5-35.5-1.3c-7.6-0.3-16.1-0.8-25.3-1.2c-65.1-3.3-162.2-9.7-193.5-18.2
			c-10.6-3-20.9-6.7-31-11.1c-32.5-14-66.1-34.9-90.5-51.7c-4.6-3.2-8.9-6.2-12.7-9c-18.7-13.6-35.9-29.2-53.4-44.3"/>
		<path class="st9" d="M357.1,241.2L357.1,241.2c-1.8,16.4,2.7,46.5,12.2,60c8.1,11.5,19.5,20.2,32.6,25.1c2.4,0.9,4.8,1.6,7.3,2.2"
			/>
		<path class="st9" d="M453.4,211.8c-23.4,23.2-36.9,55.3-40.5,88.1c-1,9.5-1.3,19.1-0.9,28.6c1.1,23.3,6.4,46.5,14.4,68.4
			c11.3,30.9,32.3,62,50.8,89.3"/>
		<path class="st9" d="M401.9,326.3c0,0-29.3,48.6-60.3,61.7s-47.9,23-48.1,41.9l0,0"/>
		<path class="st9" d="M369.3,301.2c0,0-77.4,62.3-107.1,72.6s-41.9,15.4-37.1,45.9"/>
		<path class="st9" d="M551.2,248.8c0,0,23.6,41.3,15.2,90.9c-5.8,34.4-34.2,99.6-47.8,154c-6,24.1-9.1,46.1-5.9,62.3"/>
		<path class="st9" d="M585.6,792.4c0.1-21.3-9.9-159.6,0-234.9c1.4-10.9,3.1-21.3,5.1-31.2c11.5-58.8,30.9-101.7,42.8-137.4
			c13.9-41.7,12.7-62.6,12.7-62.6"/>
		<path class="st9" d="M590.7,526.3L590.7,526.3c0.4,0.5,11.7,15.5,24.5,35.7c13.3,21.2,28.2,48.1,33.8,70.3
			c0.7,2.9,1.3,5.9,1.7,8.9c6.1,45.1,4.4,92.8-1.4,137.8c-1.4,11.4-3.4,22.7-6,33.8c-1.5,6.3-3.9,12.4-5.9,18.6
			c-0.2,0.8-0.5,1.6-0.7,2.4c-0.8,2.8-1.4,5.6-1.9,8.5c-5,35.5-10.2,70.9-15.3,106.3l-0.2,1"/>
		<path class="st9" d="M544.7,768.5c0,0,7.8,61.8,40.9,26.2c0,0,0.3,0.8,0.9,2.3c4.3,10.3,23.4,51.7,50.1,36.8l0,0"/>
		<path class="st9" d="M617.8,561.8c0,0,33.8-19.3,56.3-56.5c5-8.2,9.2-16.9,12.4-26c19.1-54.1,50.1-101.4,50.1-101.4"/>
		<path class="st9" d="M696.5,500.2c63-14.8,239.3-58.9,264.6-92.9l0,0"/>
		<path class="st9" d="M674.2,505.4c0,0,8.4-1.9,22.4-5.1"/>
		<path class="st9" d="M696.5,500.2L696.5,500.2c-2.3,21.4-6.5,42.4-12.7,63c-7.2,23.8-18.2,49.7-34.9,69.1"/>
		<path class="st9" d="M684.5,563.4c0,0,13.1,37.2,15.1,88.1c0.9,23.7-0.6,50.3-6.9,77.6"/>
		<path class="st9" d="M585,797.5c3.1,44.8,2.1,89.8-2.9,134.5c-3,26.7-7.4,53.4-7.8,80.2"/>
		<path class="st9" d="M638.2,831.7c3.1,5.2,9.9,6.9,15.1,3.7c1.7-1,3-2.4,4-4.1"/>
		<path class="st9" d="M701.6,651.4c25.3,6.8,47.3,19.4,67.3,36c2.1,1.7,4.1,3.5,6.1,5.3c12.2,10.9,23.1,23.5,36.9,32.2
			c6.2,3.8,12.7,6.9,19.5,9.5c3.8,1.5,7.6,2.9,11.4,4.3l77.7,28.3"/>
		<path class="st9" d="M771.4,687.4c21-11.2,42.4-21.7,64.1-31.6c108.1-49,223.2-80.6,341.1-93.7c-15.9-19.6-33-38.1-51.3-55.5
			c-41.3-39.3-88.5-73-138.8-98.1"/>
		<path class="st9" d="M519.9,591.7c3.7-44.5,13.1-96.8,28.7-138.6c10.9-29.3,24.7-57.6,33.3-87.7s8.8-62.9-1.9-92.4l0,0"/>
		<path class="st9" d="M517.5,493.4c-17.2-53.8-21.7-110.8-13.2-166.6c2.7-17.4,6.6-34.6,7.9-52.1c1.3-17.5,0.8-33.6-6.8-49.4"/>
		<path class="st9" d="M1177.1,562.1c14,7.7,23.1,22,27.9,37.5c1.3,4.3,2.3,8.8,3,13.2c3.2,20.3,0.8,41,0.8,61.5
			c0,41.7,9.3,82.8,27.3,120.3"/>
		<path class="st9" d="M1330.3,415.9c54.6-2.5,109-18.5,154.6-48.5s82.2-74.7,99.7-126.5s15.2-110.6-9.1-159.6
			c-2.8-5.7-6-11.5-6.5-17.9s2.8-13.6,9-15.3c8.7-2.4,16,6.8,20,14.9c41,83.1,28.4,187.4-22.9,264.6S1438.4,434.4,1347.6,453"/>
		<path class="st9" d="M1180,482.7c-0.5-3.9-0.5-7.8,0.2-11.7c1.4-7.6,6.8-15,14.5-16.3c2.8-0.4,5.6-0.1,8.3,0.9
			c3.6,1.4,6.7,3.7,9.2,6.7c4.2,5.1,6.5,11.6,8.5,17.9c18.9,58.5,27.3,120,24.8,181.5c-1,25-3.8,50-3.4,75s4.4,50.5,16,72.6"/>
		<path class="st9" d="M1205.4,599.6l-23.3-105.6c-0.8-3.7-1.7-7.5-2.1-11.3"/>
		<path class="st9" d="M1234.6,534.3l0.5,0.8c12,20.1,24.9,39.6,38.9,58.5c14.3,19.4,29.4,34.1,47.8,49.7
			c13.8-24.2,27.3-44.5,34.8-71.6"/>
		<path class="st9" d="M1203.2,454.9c3.3-25,26.8-45.6,51.3-51.3l0,0"/>
		<path class="st9" d="M1125.8,506.2c10.9,4.9,23.4,4.6,34.2-0.6c10.6-5.2,17.4-11.5,20.1-22.9l0,0"/>
		<path class="st9" d="M1321.7,643.3c11,29.3,23.9,55.8,34.9,85.1c5.7,15.3,11.4,30.7,16,46.3c2.2,7.7,4.2,15.4,5.7,23.3
			c4.6,23.9,5.9,44-1.6,67.2"/>
		<path class="st9" d="M1373.6,774.5c10,10.2,21.7,18.7,34.5,25.2c7.2,3.6,14.7,6.6,22.4,8.9c8.4,2.5,15.9,0,21.8,6.5l0,0"/>
		<path class="st9" d="M1408.1,799.7c9,23.8,9.6,47.2,12.8,72.4c7.5,58.5,15,117.1,22.4,175.6"/>
		<path class="st9" d="M983.4,770.9c60.4-9.7,70.2-10.7,98.1-16.7s47.3-19.3,67.9-39.2c19.1-18.4,29.6-44.3,33.8-70.5
			s-3.7-56.1-6-82.5l0,0"/>
		<path class="st9" d="M831.8,734.9l-0.4-0.4c-20.2-22-18.8-56.2,3.1-76.4c0.4-0.4,0.9-0.8,1.3-1.2"/>
	</g>
	<g id="stroke-dog">
		
			<linearGradient id="SVGID_1_" gradientUnits="userSpaceOnUse" x1="672.9169" y1="174.535" x2="841.2" y2="174.535" gradientTransform="matrix(1 0 0 -1 0 1116)">
			<stop  offset="0" style="stop-color:#FF512E"/>
			<stop  offset="1" style="stop-color:#FBAB48"/>
		</linearGradient>
		<path class="st10" d="M685.3,839.6l49.7,218c0,0-60.9-18.1-59.5,56.6h163.3l-41.8-345.4"/>
		
			<linearGradient id="SVGID_00000158751029096457423730000010880374895727506581_" gradientUnits="userSpaceOnUse" x1="1096.4399" y1="168.55" x2="1301.75" y2="168.55" gradientTransform="matrix(1 0 0 -1 0 1116)">
			<stop  offset="0" style="stop-color:#FF512E"/>
			<stop  offset="1" style="stop-color:#FBAB48"/>
		</linearGradient>
		
			<path style="fill:none;stroke:url(#SVGID_00000158751029096457423730000010880374895727506581_);stroke-width:5;stroke-linecap:round;stroke-linejoin:round;" d="
			M1299.2,870.3l-53.7,243.9h-146.7c4.2-55.3,66.5-70.6,66.5-70.6V780.7"/>
		
			<linearGradient id="SVGID_00000138539996176872665520000008602256236883729328_" gradientUnits="userSpaceOnUse" x1="161.7172" y1="557.6683" x2="1656.0891" y2="557.6683" gradientTransform="matrix(1 0 0 -1 0 1116)">
			<stop  offset="0" style="stop-color:#FF512E"/>
			<stop  offset="1" style="stop-color:#FBAB48"/>
		</linearGradient>
		
			<path style="fill:none;stroke:url(#SVGID_00000138539996176872665520000008602256236883729328_);stroke-width:5;stroke-linecap:round;stroke-linejoin:round;" d="
			M170.5,322.4c-5.5,11.1-31.8,102.4,87.2,130.1s141.1,2.8,189.6,47s58.1,131.5,70.6,258.7s12.5,307.6,12.5,307.6s-72-30.5-59.5,40
			h131.4l108-350.8c0,0,375.4,66.4,459.8,23.5c0,0,61.7,71,195.9,120.8l41.5,169.2c0,0-56.7-0.1-38.7,45.6h132.8l-20.8-301.9
			c0,0-114.8-226.9-110.7-321c0-1.1,48.8-14.4,52-15.6c39.4-14.5,77.2-33.9,111-58.9c104.7-77.4,135.4-191.9,114.2-316.7
			c-2.9-17.1-6.4-34.2-13.6-50.1c-9.4-20.6-25.8-39-47.5-45.4s-48.4,2.3-57.9,22.8c-6.2,13.5-4.4,29.4,0.4,43.5s12.4,27,17.7,40.9
			c17.7,46,9.1,99.7-16.7,141.6s-67.2,72.8-112.6,92.1c-70.5,30-148.6,35.4-224.1,37.5c-83.4,2.4-166.7,2-250.1-1.2
			c-89.5-3.4-183.4-11.5-258-61.1c-47.4-31.5-83.9-77.9-133.1-106.5c-38.5-22.4-84-31.5-128.3-28c-22.2,1.7-45.7,6.1-66.2,15.1
			c-21.4,9.3-28.5,29.4-37.5,49.8c-17.2,38.7-38.5,41.6-75.5,49.2C230,303.3,178.1,307.4,170.5,322.4z"/>
	</g>
	<g id="Layer_12">
		
			<linearGradient id="SVGID_00000043459181777008993440000008873699682307754404_" gradientUnits="userSpaceOnUse" x1="386.4597" y1="791.8192" x2="509.5508" y2="791.8192" gradientTransform="matrix(1 0 0 -1 0 1116)">
			<stop  offset="0" style="stop-color:#FF512E"/>
			<stop  offset="1" style="stop-color:#FBAB48"/>
		</linearGradient>
		
			<path style="opacity:0.3;fill:#03344C;stroke:url(#SVGID_00000043459181777008993440000008873699682307754404_);stroke-width:5;stroke-linecap:round;stroke-linejoin:round;enable-background:new    ;" d="
			M502.1,318.8c3.3,18.1,6.7,36.5,4.1,54.7s-12.2,36.4-28.7,44.5c-21.6,10.6-49.1,0.5-64.4-18.1s-20.5-43.5-21.9-67.6
			c-0.7-12.5-0.6-24.9-0.7-37.4c-0.1-11.2-3.5-24.8,0.5-35.3c7-18.1,25.6-31.7,44.9-33.5c19.5-1.8,38.3,8,49.6,23.7
			c6.6,9.1,7.4,18.9,9.4,29.8L502.1,318.8z"/>
	</g>
</g>
</svg>
